 year 	Sylvestre_L 	Andreas_T 	Joost_van_B 	Christophe_T 	Johannes_R 	Nobuhiro_I 	Dominique_B 	Ko_van_der_S 	Steven_M._R 	Christophe_Prud_h 	Mathieu_M 	Torsten_W 	Pierre_S 	David_B 	Gudjon_I._G 	Sébastien_V 	Charles_P 	Jan_B 	Andrea_P 	Damien_C 	Manuel_P 	Julian_T 	barbier-guest 	joostvb 	Ruben_M 	sk-guest 	Barak_P 	Sam_H 	Anton_G 	Serge_G 
 2006 	5 	0 	0 	0 	0 	0 	0 	0 	0 	0 	0 	39 	0 	0 	0 	0 	0 	0 	0 	0 	0 	0 	0 	0 	0 	0 	0 	0 	0 	0 
 2007 	13 	0 	0 	0 	0 	0 	0 	0 	0 	0 	0 	18 	0 	0 	0 	0 	0 	0 	0 	0 	0 	0 	0 	0 	0 	0 	0 	4 	0 	0 
 2008 	167 	73 	0 	0 	0 	0 	88 	0 	4 	0 	4 	81 	0 	120 	0 	0 	0 	0 	0 	4 	41 	0 	0 	0 	3 	0 	0 	10 	0 	0 
 2009 	273 	177 	0 	0 	0 	13 	86 	0 	8 	0 	0 	7 	0 	0 	17 	0 	11 	47 	0 	7 	0 	0 	0 	0 	6 	0 	0 	3 	0 	0 
 2010 	311 	88 	81 	88 	86 	27 	32 	0 	72 	155 	29 	0 	72 	0 	42 	0 	1 	1 	0 	11 	0 	0 	0 	0 	12 	0 	0 	0 	0 	8 
 2011 	311 	50 	191 	79 	190 	99 	47 	64 	105 	58 	89 	0 	21 	0 	26 	0 	16 	12 	12 	20 	0 	0 	0 	0 	1 	0 	17 	0 	15 	5 
 2012 	275 	67 	54 	146 	43 	104 	3 	115 	19 	15 	38 	0 	35 	0 	32 	66 	7 	7 	37 	2 	0 	36 	36 	0 	0 	6 	0 	0 	1 	2 
 2013 	105 	63 	86 	56 	40 	20 	2 	77 	24 	2 	26 	0 	5 	0 	0 	33 	48 	1 	17 	1 	0 	0 	0 	23 	0 	12 	0 	0 	0 	0 
