 year 	Francesco_P._L 	Paolo_C 	Hamish 	Petter_R 	Steve_H 	Andreas_T 	alex_b 	Paul_W 	Silke_R 	Jon_S 	Markus_N 	Frank_W 	Moritz_L 	Ivan_M 	Wolfgang_B 	pmarc 	Alex_B 	David_P 	Christopher_S 	Aron_X 	Stephan_H 	Fabio_T 	Didrik_P 	Stephen_F 	Cameron_S 	Niccolo_R 	Dan_J 	Antonio_V 	Giuseppe_S 	Pirmin_K 
 2004 	80 	44 	37 	1 	48 	0 	0 	0 	23 	10 	16 	10 	5 	0 	0 	0 	0 	0 	0 	0 	2 	0 	0 	0 	0 	0 	14 	0 	0 	0 
 2005 	188 	183 	84 	133 	104 	0 	45 	15 	57 	61 	31 	31 	13 	0 	41 	0 	17 	0 	0 	0 	18 	0 	14 	0 	0 	1 	9 	0 	19 	0 
 2006 	229 	117 	71 	64 	36 	0 	57 	26 	16 	16 	24 	10 	11 	0 	1 	33 	14 	0 	0 	0 	7 	15 	8 	24 	0 	7 	0 	0 	1 	0 
 2007 	165 	49 	55 	27 	2 	8 	2 	30 	0 	0 	6 	8 	10 	0 	0 	0 	0 	0 	18 	0 	2 	8 	3 	2 	0 	10 	0 	0 	0 	0 
 2008 	94 	27 	54 	15 	0 	10 	1 	10 	0 	0 	4 	3 	6 	6 	0 	0 	0 	1 	11 	0 	0 	4 	0 	0 	11 	2 	0 	0 	0 	0 
 2009 	85 	12 	22 	2 	0 	1 	0 	3 	0 	0 	0 	0 	4 	10 	0 	0 	0 	0 	1 	0 	0 	1 	2 	0 	11 	3 	0 	2 	0 	0 
 2010 	51 	13 	47 	6 	0 	38 	0 	12 	0 	0 	1 	0 	0 	20 	0 	0 	0 	5 	0 	0 	0 	0 	0 	0 	2 	0 	0 	11 	0 	6 
 2011 	42 	10 	23 	0 	0 	17 	0 	5 	0 	0 	0 	0 	0 	2 	0 	0 	0 	17 	0 	26 	0 	0 	0 	0 	0 	0 	0 	4 	0 	13 
 2012 	24 	15 	15 	0 	0 	11 	0 	0 	0 	0 	0 	0 	0 	5 	0 	0 	0 	6 	0 	3 	0 	0 	0 	0 	0 	0 	0 	4 	0 	0 
 2013 	13 	11 	11 	1 	0 	32 	0 	0 	0 	0 	0 	0 	0 	0 	0 	0 	0 	2 	0 	0 	0 	0 	0 	0 	0 	0 	0 	2 	0 	0 
