 year 	Andreas_T 	Charles_P 	Karsten_H 	Olivier_S 	Steffen_M 	Mathieu_M 	David_P 	Eric_M 	Afif_E 	Gert_W 	Yaroslav_H 	Michael_C 	Sebastian_H 	Nelson_A._de_O 	Sascha_S 	Steven_M._R 	Luis_I 	Thorsten_A 	Alexandre_M 	Michael_H 	Jorge_Sebastião_S 	Andrei_Z 	K.S_B 	Dylan 	Canberk_K 	Michael_B 	Sébastien_J 	Ghislain_V 	Daniel_L 	Amul_S 
 2002 	139 	0 	76 	0 	0 	0 	0 	0 	0 	0 	0 	0 	0 	0 	0 	1 	0 	0 	0 	0 	0 	0 	0 	0 	0 	1 	0 	0 	0 	0 
 2003 	55 	0 	20 	0 	0 	0 	0 	0 	0 	0 	0 	0 	0 	0 	0 	0 	0 	0 	0 	0 	0 	0 	0 	0 	0 	5 	0 	0 	0 	0 
 2004 	80 	0 	8 	0 	4 	1 	0 	0 	0 	0 	0 	0 	0 	0 	0 	0 	0 	0 	0 	0 	0 	0 	0 	0 	0 	2 	0 	0 	0 	0 
 2005 	148 	0 	17 	0 	27 	0 	0 	0 	0 	0 	0 	0 	0 	22 	0 	0 	0 	0 	0 	5 	0 	0 	0 	0 	0 	4 	0 	0 	2 	0 
 2006 	109 	73 	17 	0 	6 	0 	0 	0 	0 	0 	0 	0 	0 	13 	0 	13 	0 	0 	0 	27 	0 	0 	0 	0 	0 	0 	0 	0 	0 	0 
 2007 	325 	233 	34 	0 	71 	0 	147 	0 	0 	0 	6 	0 	7 	58 	0 	1 	0 	0 	0 	21 	0 	0 	0 	0 	0 	5 	0 	0 	16 	0 
 2008 	466 	335 	42 	0 	36 	86 	117 	0 	0 	8 	0 	0 	17 	55 	0 	33 	0 	0 	0 	10 	0 	0 	0 	0 	0 	11 	0 	0 	42 	0 
 2009 	411 	156 	55 	0 	68 	143 	41 	23 	0 	0 	1 	0 	23 	20 	0 	15 	0 	0 	0 	33 	0 	0 	0 	0 	0 	22 	0 	0 	18 	0 
 2010 	187 	59 	44 	0 	28 	15 	0 	18 	0 	0 	10 	0 	22 	10 	0 	12 	0 	0 	0 	17 	0 	0 	0 	0 	0 	4 	0 	0 	0 	0 
 2011 	669 	145 	119 	180 	110 	101 	8 	31 	0 	0 	30 	0 	99 	13 	0 	13 	0 	67 	30 	9 	0 	11 	15 	0 	0 	12 	0 	0 	2 	0 
 2012 	865 	184 	92 	101 	35 	61 	2 	142 	0 	29 	128 	7 	21 	0 	1 	28 	120 	28 	45 	4 	0 	45 	62 	0 	0 	7 	0 	0 	0 	15 
 2013 	441 	69 	30 	45 	19 	27 	0 	66 	0 	33 	38 	0 	18 	0 	13 	5 	12 	9 	8 	1 	9 	22 	6 	0 	0 	4 	0 	0 	0 	26 
 2014 	636 	68 	52 	58 	25 	11 	0 	26 	0 	71 	46 	1 	3 	0 	25 	19 	31 	29 	18 	0 	97 	6 	21 	26 	0 	9 	0 	4 	0 	22 
 2015 	695 	48 	46 	72 	21 	1 	0 	0 	136 	63 	12 	92 	1 	0 	18 	32 	0 	4 	17 	1 	1 	16 	0 	14 	0 	2 	68 	36 	0 	10 
 2016 	764 	18 	34 	85 	51 	0 	0 	1 	119 	73 	5 	109 	4 	0 	102 	3 	0 	2 	7 	2 	0 	2 	0 	57 	93 	6 	17 	23 	0 	3 
 2017 	473 	18 	4 	33 	62 	0 	0 	1 	42 	18 	7 	29 	0 	0 	18 	0 	0 	5 	10 	0 	0 	2 	0 	7 	7 	3 	9 	21 	0 	0 
 2018 	27 	10 	0 	8 	2 	0 	0 	0 	1 	0 	0 	0 	0 	0 	1 	0 	0 	0 	0 	0 	0 	0 	0 	0 	0 	0 	0 	2 	0 	0 
