 year 	Andreas_T 	Charles_P 	Mathieu_M 	Steffen_M 	Olivier_S 	David_P 	Steven_M._R 	Laszlo_K 	Aaron_M._U 	Thorsten_A 	Alexandre_M 	Dominique_B 	Rafael_L 	Jan_B 	Eric_M 	Michael_H 	Nelson_A._de_O 	Christoph_G 	Luis_I 	Andreas_H 	Andrei_Z 	Carlos_B 	Philipp_B 	Manuel_P 	Aaron_U 	Shaun_J 	Timothy_B 	Ivo_M 	Morten_K 	Gert_W 
 2005 	0 	0 	0 	0 	0 	0 	0 	0 	76 	0 	0 	0 	0 	0 	0 	0 	0 	0 	0 	0 	0 	0 	0 	0 	0 	0 	0 	0 	0 	0 
 2006 	0 	165 	0 	0 	0 	0 	0 	0 	45 	0 	0 	0 	2 	0 	0 	0 	0 	0 	0 	0 	0 	0 	0 	0 	0 	0 	0 	0 	0 	0 
 2007 	63 	257 	0 	180 	0 	299 	11 	0 	20 	0 	0 	0 	44 	28 	0 	2 	23 	0 	0 	0 	0 	0 	24 	0 	0 	0 	0 	0 	0 	0 
 2008 	533 	546 	60 	188 	0 	207 	101 	0 	55 	0 	0 	51 	42 	29 	0 	1 	43 	0 	0 	13 	0 	0 	16 	15 	0 	0 	0 	0 	33 	0 
 2009 	537 	508 	265 	117 	0 	30 	51 	0 	13 	0 	0 	31 	29 	48 	6 	35 	33 	0 	0 	36 	0 	0 	27 	12 	0 	0 	0 	0 	4 	0 
 2010 	422 	312 	84 	223 	0 	0 	99 	0 	20 	0 	0 	4 	0 	9 	8 	59 	7 	0 	0 	14 	12 	0 	4 	8 	0 	49 	0 	0 	0 	0 
 2011 	1024 	830 	730 	244 	439 	2 	89 	85 	22 	111 	115 	29 	0 	5 	19 	15 	8 	27 	0 	32 	29 	1 	9 	25 	61 	13 	42 	24 	0 	0 
 2012 	1809 	441 	405 	50 	310 	0 	78 	302 	23 	104 	51 	16 	12 	10 	94 	10 	0 	82 	108 	12 	56 	88 	5 	10 	8 	1 	17 	25 	0 	35 
