 year 	Andreas_T 	Charles_P 	Mathieu_M 	Olivier_S 	Steve_M._R 	Aaron_M._U 	Steffen_M 	Dominique_B 	Laszlo_K 	Philipp_B 	Thorsten_A 	Nelson_A._de_O 	Thijs_K 	Alexandre_M 	Jan_B 	Gregory_C._S 	Emmanuel_P 	Matthias_K 	Dmitry_S 	David_P 	Yavor_D 	Sebastien_J 	Manuel_P 	Andreas_H 	Michael_S 	Ivo_M 	Varun_H 	Miriam_R 	Maarten_L._H 	Shaun_J 
 2001 	6 	0 	0 	0 	0 	8 	0 	0 	0 	0 	0 	0 	0 	0 	0 	0 	0 	0 	0 	0 	0 	0 	0 	0 	0 	0 	0 	0 	0 	0 
 2002 	5 	0 	0 	0 	0 	4 	0 	0 	0 	0 	0 	0 	0 	0 	0 	0 	0 	0 	0 	0 	0 	0 	0 	0 	0 	0 	0 	0 	0 	0 
 2003 	7 	0 	0 	0 	0 	3 	0 	0 	0 	0 	0 	0 	0 	0 	0 	0 	0 	0 	0 	0 	0 	0 	0 	0 	0 	0 	0 	0 	0 	0 
 2004 	3 	0 	0 	0 	1 	0 	0 	0 	0 	1 	0 	0 	0 	0 	0 	0 	0 	0 	0 	0 	0 	0 	0 	0 	0 	0 	0 	0 	0 	0 
 2005 	2 	0 	0 	0 	1 	2 	0 	0 	0 	0 	0 	0 	0 	0 	0 	0 	0 	0 	0 	0 	0 	0 	0 	0 	0 	0 	0 	0 	0 	0 
 2007 	45 	27 	0 	0 	3 	6 	0 	0 	0 	8 	0 	3 	4 	0 	0 	0 	0 	0 	0 	0 	0 	0 	0 	0 	0 	0 	0 	0 	0 	0 
 2008 	30 	29 	0 	0 	12 	2 	2 	5 	0 	1 	0 	4 	2 	0 	0 	0 	0 	0 	0 	3 	0 	0 	0 	0 	0 	0 	1 	0 	0 	0 
 2009 	37 	31 	12 	0 	6 	1 	5 	10 	0 	2 	0 	3 	0 	0 	0 	0 	0 	0 	0 	0 	0 	0 	0 	0 	0 	0 	0 	0 	0 	0 
 2010 	19 	27 	18 	0 	13 	0 	7 	5 	0 	0 	0 	0 	0 	0 	1 	0 	0 	1 	0 	0 	3 	0 	0 	0 	0 	0 	0 	0 	0 	0 
 2011 	80 	29 	25 	12 	18 	6 	16 	3 	3 	1 	3 	0 	0 	0 	0 	0 	0 	0 	0 	0 	0 	0 	1 	0 	2 	0 	0 	1 	0 	1 
 2012 	138 	24 	62 	57 	14 	3 	2 	5 	7 	0 	7 	0 	0 	3 	3 	3 	0 	2 	0 	0 	0 	0 	1 	1 	0 	2 	0 	0 	1 	0 
 2013 	18 	3 	28 	12 	3 	3 	1 	0 	4 	1 	3 	0 	0 	3 	0 	0 	3 	0 	3 	0 	0 	2 	0 	1 	0 	0 	0 	0 	0 	0 
