 year 	Andreas_T 	Charles_P 	Mathieu_M 	Steffen_M 	Olivier_S 	David_P 	Steven_M._R 	Laszlo_K 	Aaron_M._U 	Thorsten_A 	Alexandre_M 	Rafael_L 	Eric_M 	Jan_B 	Dominique_B 	Christoph_G 	Michael_H 	Nelson_A._de_O 	Andrei_Z 	Luis_I 	Andreas_H 	tille 	Philipp_B 	Carlos_B 	Timothy_B 	Gert_W 	Aaron_U 	e2jk-guest 	Ivo_M 	Manuel_P 
 2005 	0 	0 	0 	0 	0 	0 	0 	0 	76 	0 	0 	0 	0 	0 	0 	0 	0 	0 	0 	0 	0 	0 	0 	0 	0 	0 	0 	0 	0 	0 
 2006 	0 	165 	0 	0 	0 	0 	0 	0 	45 	0 	0 	2 	0 	0 	0 	0 	0 	0 	0 	0 	0 	0 	0 	0 	0 	0 	0 	0 	0 	0 
 2007 	63 	257 	0 	180 	0 	299 	11 	0 	20 	0 	0 	44 	0 	28 	0 	0 	2 	23 	0 	0 	0 	0 	24 	0 	0 	0 	0 	0 	0 	0 
 2008 	533 	546 	60 	188 	0 	207 	101 	0 	55 	0 	0 	42 	0 	29 	51 	0 	1 	43 	0 	0 	13 	0 	16 	0 	0 	0 	0 	0 	0 	15 
 2009 	537 	508 	265 	117 	0 	30 	51 	0 	13 	0 	0 	29 	6 	48 	31 	0 	35 	33 	0 	0 	36 	0 	27 	0 	0 	0 	0 	0 	0 	12 
 2010 	422 	312 	84 	223 	0 	0 	99 	0 	20 	0 	0 	0 	8 	9 	4 	0 	59 	7 	12 	0 	14 	0 	4 	0 	0 	0 	0 	0 	0 	8 
 2011 	1024 	830 	730 	244 	439 	2 	89 	85 	22 	111 	115 	0 	19 	5 	29 	27 	15 	8 	29 	0 	32 	0 	9 	1 	42 	0 	61 	0 	24 	25 
 2012 	1810 	441 	416 	50 	310 	0 	81 	302 	23 	104 	51 	18 	94 	10 	16 	82 	10 	0 	56 	108 	12 	0 	5 	88 	17 	35 	8 	1 	25 	10 
 2013 	515 	325 	145 	16 	159 	0 	15 	49 	11 	60 	19 	14 	13 	6 	2 	21 	0 	0 	14 	0 	0 	106 	5 	0 	25 	48 	11 	71 	23 	0 
