 year 	Andreas_T 	Mathieu_M 	Charles_P 	Olivier_S 	Steve_M._R 	Aaron_M._U 	Gert_W 	Steffen_M 	Laszlo_K 	Dominique_B 	Thorsten_A 	Sebastien_J 	Alexandre_M 	Afif_E 	Nelson_A._de_O 	Gregory_C._S 	Kevin_M 	Matthias_K 	Dmitry_S 	Sascha_S 	Jan_B 	Vincent_D 	Iain_R._L 	Emmanuel_P 	Thijs_K 	Paul_N 	Philipp_B 	Thiago_Franco_de_M 	Dimitri_John_L 	Emilien_K 	Corentin_D 	Roland_F 	Michael_R._C 	Yavor_D 	Ognyan_K 	Scott_K 	Ivo_M 	David_P 	Gianfranco_C 	Elmar_P 	Andreas_H 	Tomas_Di_D 	Manuel_P 	Rafael_L 	Yaroslav_H 	Maarten_L._H 	Amul_S 	Tamás_N 	Julien_L 	Michael_S 	Navid_F 	Jorge_S 	Anton_G 	Eric_M 	Shaun_J 	Dylan_A 	Varun_H 	Fabian_K 	Miriam_R 	Dirk_E 	L.C._K 	Alexandre_G 	Tomasz_B 	Diane_T 
 2001 	6 	0 	0 	0 	0 	8 	0 	0 	0 	0 	0 	0 	0 	0 	0 	0 	0 	0 	0 	0 	0 	0 	0 	0 	0 	0 	0 	0 	0 	0 	0 	0 	0 	0 	0 	0 	0 	0 	0 	0 	0 	0 	0 	0 	0 	0 	0 	0 	0 	0 	0 	0 	0 	0 	0 	0 	0 	0 	0 	0 	0 	0 	0 	0 
 2002 	5 	0 	0 	0 	0 	4 	0 	0 	0 	0 	0 	0 	0 	0 	0 	0 	0 	0 	0 	0 	0 	0 	0 	0 	0 	0 	0 	0 	0 	0 	0 	0 	0 	0 	0 	0 	0 	0 	0 	0 	0 	0 	0 	0 	0 	0 	0 	0 	0 	0 	0 	0 	0 	0 	0 	0 	0 	0 	0 	0 	0 	0 	0 	0 
 2003 	7 	0 	0 	0 	0 	3 	0 	0 	0 	0 	0 	0 	0 	0 	0 	0 	0 	0 	0 	0 	0 	0 	0 	0 	0 	0 	0 	0 	0 	0 	0 	0 	0 	0 	0 	0 	0 	0 	0 	0 	0 	0 	0 	0 	0 	0 	0 	0 	0 	0 	0 	0 	0 	0 	0 	0 	0 	0 	0 	0 	0 	0 	0 	0 
 2004 	3 	0 	0 	0 	1 	0 	0 	0 	0 	0 	0 	0 	0 	0 	0 	0 	0 	0 	0 	0 	0 	0 	0 	0 	0 	0 	0 	0 	0 	0 	0 	0 	0 	0 	0 	0 	0 	0 	0 	0 	0 	0 	0 	0 	0 	0 	0 	0 	0 	0 	0 	0 	0 	0 	0 	0 	0 	0 	0 	1 	0 	0 	0 	0 
 2005 	2 	0 	0 	0 	1 	2 	0 	0 	0 	0 	0 	0 	0 	0 	0 	0 	0 	0 	0 	0 	0 	0 	0 	0 	0 	0 	0 	0 	0 	0 	0 	0 	0 	0 	0 	0 	0 	0 	0 	0 	0 	0 	0 	0 	0 	0 	0 	0 	0 	0 	0 	0 	0 	0 	0 	0 	0 	0 	0 	0 	0 	0 	0 	0 
 2007 	45 	0 	27 	0 	3 	6 	0 	0 	0 	0 	0 	0 	0 	0 	3 	0 	0 	0 	0 	0 	0 	0 	0 	0 	4 	0 	0 	0 	0 	0 	0 	0 	0 	0 	0 	0 	0 	0 	0 	0 	0 	0 	0 	0 	0 	0 	0 	0 	0 	0 	0 	0 	0 	0 	0 	0 	0 	0 	0 	0 	0 	0 	0 	0 
 2008 	30 	0 	29 	0 	11 	2 	0 	2 	0 	5 	0 	0 	0 	0 	3 	0 	0 	0 	0 	0 	0 	0 	0 	0 	2 	0 	0 	0 	0 	0 	0 	0 	0 	0 	0 	0 	0 	3 	0 	0 	0 	0 	0 	0 	0 	0 	0 	0 	0 	0 	0 	0 	0 	0 	0 	0 	1 	0 	0 	0 	0 	0 	0 	0 
 2009 	37 	12 	30 	0 	6 	1 	0 	5 	0 	10 	0 	0 	0 	0 	3 	0 	0 	0 	0 	0 	0 	0 	0 	0 	0 	0 	2 	0 	0 	0 	0 	0 	0 	0 	0 	0 	0 	0 	0 	0 	0 	0 	0 	0 	0 	0 	0 	0 	0 	0 	0 	0 	0 	0 	0 	0 	0 	0 	0 	0 	0 	0 	0 	0 
 2010 	19 	16 	27 	0 	11 	0 	0 	7 	0 	5 	0 	0 	0 	0 	0 	0 	0 	1 	0 	0 	1 	0 	0 	0 	0 	0 	0 	0 	0 	0 	0 	0 	0 	3 	0 	0 	0 	0 	0 	0 	0 	0 	0 	0 	0 	0 	0 	0 	0 	0 	0 	0 	0 	0 	0 	0 	0 	0 	0 	0 	0 	0 	0 	0 
 2011 	77 	23 	29 	12 	18 	6 	0 	16 	3 	3 	3 	0 	0 	0 	0 	0 	0 	0 	0 	0 	0 	0 	0 	0 	0 	0 	1 	0 	0 	0 	0 	0 	0 	0 	0 	0 	0 	0 	0 	0 	0 	0 	1 	0 	0 	0 	0 	0 	0 	2 	0 	0 	0 	0 	1 	0 	0 	0 	1 	0 	0 	0 	0 	0 
 2012 	121 	61 	23 	56 	13 	3 	0 	2 	6 	3 	4 	0 	2 	0 	0 	3 	0 	2 	0 	0 	2 	0 	0 	0 	0 	0 	0 	0 	0 	0 	0 	0 	0 	0 	0 	1 	0 	0 	0 	0 	1 	0 	1 	0 	0 	1 	0 	0 	0 	0 	0 	0 	0 	0 	0 	0 	0 	0 	0 	0 	0 	0 	0 	0 
 2013 	106 	41 	15 	25 	5 	6 	6 	1 	16 	2 	12 	5 	5 	0 	0 	0 	0 	0 	3 	0 	2 	0 	0 	4 	0 	0 	2 	3 	4 	2 	0 	0 	0 	0 	2 	0 	2 	0 	0 	0 	1 	0 	0 	1 	0 	1 	0 	0 	0 	0 	0 	0 	1 	0 	0 	0 	0 	0 	0 	0 	0 	0 	0 	1 
 2014 	185 	59 	16 	17 	9 	1 	7 	2 	7 	0 	2 	5 	2 	0 	0 	3 	0 	0 	1 	5 	1 	2 	6 	1 	0 	0 	0 	2 	0 	2 	0 	0 	0 	0 	1 	0 	1 	0 	3 	2 	0 	2 	0 	0 	1 	0 	1 	0 	0 	0 	0 	1 	0 	1 	0 	0 	0 	0 	0 	0 	1 	1 	0 	0 
 2015 	141 	6 	6 	16 	9 	2 	8 	0 	0 	1 	0 	7 	6 	8 	0 	3 	2 	4 	3 	1 	0 	1 	0 	1 	0 	5 	0 	0 	0 	0 	4 	2 	1 	0 	0 	2 	0 	0 	0 	0 	0 	0 	0 	1 	1 	0 	1 	2 	0 	0 	2 	0 	0 	0 	0 	0 	0 	1 	0 	0 	0 	0 	1 	0 
 2016 	118 	1 	0 	0 	0 	1 	19 	0 	0 	1 	0 	2 	0 	7 	0 	0 	7 	0 	0 	1 	0 	3 	0 	0 	0 	0 	0 	0 	0 	0 	0 	2 	2 	0 	0 	0 	0 	0 	0 	0 	0 	0 	0 	0 	0 	0 	0 	0 	2 	0 	0 	0 	0 	0 	0 	1 	0 	0 	0 	0 	0 	0 	0 	0 
