 year 	David_P 	Mònica_Ramírez_A 	Andrew_H 	Giovanni_M 	Jonas_S 	colliar 	Timo_Juhani_L 	Jinghao_Printing_-_C 	Sebastiaan_C 	Andreas_T 	Nelson_A._de_O 	Alberto_F 	Lucas_N 	Ralf_T 	Damien_R 	Alexandre_R 	Andrew_S 	Ross_G 	sales_at_a 	Davide_G 	Salvo_T 	Petter_R 	Christopher_B 	arne_a 	Mr.Perter_H 	Jakub_W 	Aron_X 	Space_Coast_H 	一行一个 	ael 
 2011 	46 	18 	13 	18 	10 	0 	4 	0 	0 	1 	3 	6 	1 	1 	6 	0 	0 	0 	0 	2 	0 	0 	0 	2 	0 	1 	0 	0 	0 	3 
 2012 	17 	0 	8 	3 	7 	11 	2 	3 	0 	0 	2 	2 	5 	2 	1 	0 	0 	0 	0 	1 	0 	0 	0 	1 	0 	3 	3 	0 	1 	0 
 2013 	8 	11 	0 	0 	0 	6 	8 	2 	0 	6 	0 	0 	2 	0 	0 	7 	4 	1 	7 	2 	4 	4 	2 	1 	4 	0 	0 	0 	2 	0 
 2014 	3 	0 	0 	0 	2 	2 	0 	4 	9 	3 	3 	0 	0 	4 	0 	0 	3 	6 	0 	1 	1 	1 	2 	0 	0 	0 	0 	3 	0 	0 
 2015 	0 	0 	0 	0 	0 	0 	0 	4 	2 	0 	1 	0 	0 	0 	0 	0 	0 	0 	0 	0 	0 	0 	0 	0 	0 	0 	0 	0 	0 	0 
