 year 	Andreas_T 	Mathieu_M 	Charles_P 	Olivier_S 	Steve_M._R 	Aaron_M._U 	Steffen_M 	Laszlo_K 	Dominique_B 	Thorsten_A 	Gert_W 	Sebastien_J 	Alexandre_M 	Nelson_A._de_O 	Gregory_C._S 	Matthias_K 	Emmanuel_P 	Thijs_K 	Iain_R._L 	Jan_B 	Sascha_S 	Philipp_B 	Thiago_Franco_de_M 	Dmitry_S 	Emilien_K 	Dimitri_John_L 	Ognyan_K 	Ivo_M 	Corentin_D 	Yavor_D 	David_P 	Gianfranco_C 	Michael_S 	Afif_E 	Leonardo_R 	Elmar_P 	Maarten_L._H 	Tamás_N 	Vincent_D 	Manuel_P 	Amul_S 	Andreas_H 	Tomas_Di_D 	Yaroslav_H 	Navid_F 	Diane_T 	Shaun_J 	Kevin_M 	Roland_F 	Rafael_L 	L.C._K 	Dirk_E 	Jorge_S 	Alexandre_G 	Varun_H 	Miriam_R 	Eric_M 
 2001 	6 	0 	0 	0 	0 	8 	0 	0 	0 	0 	0 	0 	0 	0 	0 	0 	0 	0 	0 	0 	0 	0 	0 	0 	0 	0 	0 	0 	0 	0 	0 	0 	0 	0 	0 	0 	0 	0 	0 	0 	0 	0 	0 	0 	0 	0 	0 	0 	0 	0 	0 	0 	0 	0 	0 	0 	0 
 2002 	5 	0 	0 	0 	0 	4 	0 	0 	0 	0 	0 	0 	0 	0 	0 	0 	0 	0 	0 	0 	0 	0 	0 	0 	0 	0 	0 	0 	0 	0 	0 	0 	0 	0 	0 	0 	0 	0 	0 	0 	0 	0 	0 	0 	0 	0 	0 	0 	0 	0 	0 	0 	0 	0 	0 	0 	0 
 2003 	7 	0 	0 	0 	0 	3 	0 	0 	0 	0 	0 	0 	0 	0 	0 	0 	0 	0 	0 	0 	0 	0 	0 	0 	0 	0 	0 	0 	0 	0 	0 	0 	0 	0 	0 	0 	0 	0 	0 	0 	0 	0 	0 	0 	0 	0 	0 	0 	0 	0 	0 	0 	0 	0 	0 	0 	0 
 2004 	3 	0 	0 	0 	1 	0 	0 	0 	0 	0 	0 	0 	0 	0 	0 	0 	0 	0 	0 	0 	0 	0 	0 	0 	0 	0 	0 	0 	0 	0 	0 	0 	0 	0 	0 	0 	0 	0 	0 	0 	0 	0 	0 	0 	0 	0 	0 	0 	0 	0 	0 	1 	0 	0 	0 	0 	0 
 2005 	2 	0 	0 	0 	1 	2 	0 	0 	0 	0 	0 	0 	0 	0 	0 	0 	0 	0 	0 	0 	0 	0 	0 	0 	0 	0 	0 	0 	0 	0 	0 	0 	0 	0 	0 	0 	0 	0 	0 	0 	0 	0 	0 	0 	0 	0 	0 	0 	0 	0 	0 	0 	0 	0 	0 	0 	0 
 2007 	45 	0 	27 	0 	3 	6 	0 	0 	0 	0 	0 	0 	0 	3 	0 	0 	0 	4 	0 	0 	0 	0 	0 	0 	0 	0 	0 	0 	0 	0 	0 	0 	0 	0 	0 	0 	0 	0 	0 	0 	0 	0 	0 	0 	0 	0 	0 	0 	0 	0 	0 	0 	0 	0 	0 	0 	0 
 2008 	30 	0 	29 	0 	11 	2 	2 	0 	5 	0 	0 	0 	0 	3 	0 	0 	0 	2 	0 	0 	0 	0 	0 	0 	0 	0 	0 	0 	0 	0 	3 	0 	0 	0 	0 	0 	0 	0 	0 	0 	0 	0 	0 	0 	0 	0 	0 	0 	0 	0 	0 	0 	0 	0 	1 	0 	0 
 2009 	37 	12 	30 	0 	6 	1 	5 	0 	10 	0 	0 	0 	0 	3 	0 	0 	0 	0 	0 	0 	0 	2 	0 	0 	0 	0 	0 	0 	0 	0 	0 	0 	0 	0 	0 	0 	0 	0 	0 	0 	0 	0 	0 	0 	0 	0 	0 	0 	0 	0 	0 	0 	0 	0 	0 	0 	0 
 2010 	19 	16 	27 	0 	11 	0 	7 	0 	5 	0 	0 	0 	0 	0 	0 	1 	0 	0 	0 	1 	0 	0 	0 	0 	0 	0 	0 	0 	0 	3 	0 	0 	0 	0 	0 	0 	0 	0 	0 	0 	0 	0 	0 	0 	0 	0 	0 	0 	0 	0 	0 	0 	0 	0 	0 	0 	0 
 2011 	77 	23 	29 	12 	18 	6 	16 	3 	3 	3 	0 	0 	0 	0 	0 	0 	0 	0 	0 	0 	0 	1 	0 	0 	0 	0 	0 	0 	0 	0 	0 	0 	2 	0 	0 	0 	0 	0 	0 	1 	0 	0 	0 	0 	0 	0 	1 	0 	0 	0 	0 	0 	0 	0 	0 	1 	0 
 2012 	121 	61 	23 	56 	13 	3 	2 	6 	3 	4 	0 	0 	2 	0 	3 	2 	0 	0 	0 	2 	0 	0 	0 	0 	0 	0 	0 	0 	0 	0 	0 	0 	0 	0 	0 	0 	1 	0 	0 	1 	0 	1 	0 	0 	0 	0 	0 	0 	0 	0 	0 	0 	0 	0 	0 	0 	0 
 2013 	106 	42 	15 	25 	5 	6 	1 	16 	2 	12 	6 	5 	5 	0 	0 	0 	4 	0 	0 	2 	0 	2 	3 	3 	2 	4 	2 	2 	0 	0 	0 	0 	0 	0 	2 	0 	1 	0 	0 	0 	0 	1 	0 	0 	0 	1 	0 	0 	0 	1 	0 	0 	0 	0 	0 	0 	0 
 2014 	185 	59 	16 	17 	9 	1 	2 	7 	0 	2 	7 	5 	2 	0 	3 	0 	1 	0 	6 	1 	5 	0 	2 	1 	2 	0 	1 	1 	0 	0 	0 	3 	0 	0 	0 	2 	0 	0 	2 	0 	1 	0 	2 	1 	0 	0 	0 	0 	0 	0 	1 	0 	1 	1 	0 	0 	1 
 2015 	74 	5 	4 	9 	4 	2 	0 	0 	1 	0 	1 	4 	4 	0 	3 	4 	1 	0 	0 	0 	0 	0 	0 	0 	0 	0 	0 	0 	3 	0 	0 	0 	0 	2 	0 	0 	0 	2 	0 	0 	1 	0 	0 	1 	2 	0 	0 	1 	1 	0 	0 	0 	0 	0 	0 	0 	0 
