 year 	David_P 	Giovanni_M 	Andreas_P 	Jonas_S 	Mònica_Ramírez_A 	Andrew_H 	Petter_R 	Francesco_P._L 	Damien_R 	Timo_Juhani_L 
 2007 	0 	0 	14 	0 	0 	0 	0 	0 	0 	0 
 2008 	0 	46 	52 	0 	0 	0 	15 	0 	0 	0 
 2009 	34 	122 	10 	0 	0 	0 	0 	4 	0 	0 
 2010 	252 	39 	0 	0 	0 	0 	0 	0 	0 	0 
 2011 	318 	62 	0 	20 	43 	14 	0 	0 	2 	1 
 2012 	172 	20 	0 	34 	0 	4 	0 	0 	0 	0 
 2013 	13 	0 	0 	19 	0 	3 	0 	0 	0 	0 
