 year 	Andreas_T 	Charles_P 	Steffen_M 	Sascha_S 	Mathieu_M 	Olivier_S 	Gert_W 	Afif_E 	Michael_Robin_C 	Alexandre_M 	Steve_M._R 	Rafael_L 	Dylan_A 	Aaron_M._U 	Thorsten_A 	Laszlo_K 	Sebastien_J 	Julien_D 	Graham_I 	Kevin_M 	Jan_B 	Shaun_J 	Andrei_Z 	Philipp_B 	Dominique_B 	Ghislain_Antony_V 	Fabian_K 	Nadiya_S 	Julien_L 	Nelson_A._de_O 	Gregory_C._S 	Iain_R._L 	Vincent_D 	Liubov_C 	Dmitry_S 	Amul_S 	Thiago_Franco_de_M 	Yaroslav_H 	Ivo_M 	Eric_M 	Sébastien_V 	Dirk_E 	David_P 	Maarten_L._H 	Tomasz_B 	Miriam_R 	Ognyan_K 	Dimitri_John_L 	Alba_C 	Mattia_R 	Benjamin_E 	Carnë_D 	Thijs_K 	Sergio_Durigan_J 	Paul_N 	David_P 	Martin_U 	Tobias_H 	Emilien_K 	Emmanuel_B 	Roland_F 	L.C._K 	Carlos_B 	Flavien_B 	Jorge_S 	gregor_h 	Yavor_D 	Gordon_B 	Alexandre_G 	Matthias_K 	Tim_B 	Diane_T 	Manuel_P 	Tomas_Di_D 	Gianfranco_C 	Guy_Y 	Sebastian_H 	Simon_K 	Benjamin_R 	Varun_H 	Sébastien_B 	Morten_K 	Scott_C 	Anton_G 	Pjotr_P 	tony_m 	Scott_K 	Danny_E 	Luis_Rivas_V 	Navid_F 	Erik_S 	Tamás_N 	Georges_K 	Stephan_S 	Çağrı_U 	Christopher_H 	Matthias_K 	Christoph_G 	Sukhbir_S 	Stephen_S 	bertrand_N 	Balint_R 	Vojtěch_K 	Robert_W 	Christian_M._A 	Elmar_P 	Pablo_L 	Cedric_S 	Michael_S 	Malihe_A 	Bastian_B 	Soeren_S 	Eva_R 	Emmanuel_P 	Ariane_B 	Tony_T 	Julia_E 	Stefan_A 	Animesh_S 
 2001 	11 	0 	0 	0 	0 	0 	0 	0 	0 	0 	0 	0 	0 	12 	0 	0 	0 	0 	0 	0 	0 	0 	0 	0 	0 	0 	0 	0 	0 	0 	0 	0 	0 	0 	0 	0 	0 	0 	0 	0 	0 	0 	0 	0 	0 	0 	0 	0 	0 	0 	0 	0 	0 	0 	0 	0 	0 	0 	0 	0 	0 	0 	0 	0 	0 	0 	0 	0 	0 	0 	0 	0 	0 	0 	0 	0 	0 	0 	0 	0 	0 	0 	0 	0 	0 	0 	0 	0 	0 	0 	0 	0 	0 	0 	0 	0 	0 	0 	0 	0 	0 	0 	0 	0 	0 	0 	0 	0 	0 	0 	0 	0 	0 	0 	0 	0 	0 	0 	0 
 2002 	10 	0 	0 	0 	0 	0 	0 	0 	0 	0 	2 	0 	0 	10 	0 	0 	0 	0 	0 	0 	0 	0 	0 	0 	0 	0 	0 	0 	0 	0 	0 	0 	0 	0 	0 	0 	0 	0 	0 	0 	0 	0 	0 	0 	0 	0 	0 	0 	0 	0 	0 	0 	0 	0 	0 	0 	0 	0 	0 	0 	0 	0 	0 	0 	0 	0 	0 	0 	0 	0 	0 	0 	0 	0 	0 	0 	0 	0 	0 	0 	0 	0 	0 	0 	0 	0 	0 	0 	0 	0 	0 	0 	0 	0 	0 	0 	0 	0 	0 	0 	0 	0 	0 	0 	0 	0 	0 	0 	0 	0 	0 	0 	0 	0 	0 	0 	0 	0 	0 
 2003 	8 	0 	0 	0 	0 	0 	0 	0 	0 	0 	2 	0 	0 	11 	0 	0 	0 	0 	0 	0 	0 	0 	0 	0 	0 	0 	0 	0 	0 	0 	0 	0 	0 	0 	0 	0 	0 	0 	0 	0 	0 	0 	0 	0 	0 	0 	0 	0 	0 	0 	0 	0 	0 	0 	0 	0 	0 	0 	0 	0 	0 	0 	0 	0 	0 	0 	0 	0 	0 	0 	0 	0 	0 	0 	0 	0 	0 	0 	0 	0 	0 	0 	0 	0 	0 	0 	0 	0 	0 	0 	0 	0 	0 	0 	0 	0 	0 	0 	0 	0 	0 	0 	0 	0 	0 	0 	0 	0 	0 	0 	0 	0 	0 	0 	0 	0 	0 	0 	0 
 2004 	15 	0 	0 	0 	0 	0 	0 	0 	0 	0 	2 	0 	0 	6 	0 	0 	0 	0 	0 	0 	0 	0 	0 	0 	0 	0 	0 	0 	0 	0 	0 	0 	0 	0 	0 	0 	0 	0 	0 	0 	0 	0 	0 	0 	0 	0 	0 	0 	0 	0 	0 	0 	0 	0 	0 	0 	0 	0 	0 	0 	0 	0 	0 	0 	0 	0 	0 	0 	0 	0 	0 	0 	0 	0 	0 	0 	0 	0 	0 	0 	0 	0 	0 	0 	0 	0 	0 	0 	0 	0 	0 	0 	0 	0 	0 	0 	0 	0 	0 	0 	0 	0 	0 	0 	0 	0 	0 	0 	0 	0 	0 	0 	0 	0 	0 	0 	0 	0 	0 
 2005 	21 	0 	0 	0 	0 	0 	0 	0 	0 	0 	2 	8 	0 	6 	0 	0 	0 	0 	0 	0 	0 	0 	0 	0 	0 	0 	0 	0 	0 	0 	0 	0 	0 	0 	0 	0 	0 	0 	0 	0 	0 	0 	0 	0 	0 	3 	0 	0 	0 	0 	0 	0 	0 	0 	0 	0 	0 	0 	0 	0 	0 	0 	0 	0 	0 	0 	0 	0 	0 	0 	0 	0 	0 	0 	0 	0 	0 	0 	0 	0 	0 	0 	0 	0 	0 	0 	0 	0 	0 	0 	0 	0 	0 	0 	0 	0 	0 	0 	0 	0 	0 	0 	0 	0 	0 	0 	0 	0 	0 	0 	0 	0 	0 	0 	0 	0 	0 	0 	0 
 2006 	19 	14 	0 	0 	0 	0 	0 	0 	0 	0 	5 	16 	0 	6 	0 	0 	0 	0 	0 	0 	0 	0 	0 	0 	0 	0 	0 	0 	0 	2 	0 	0 	0 	0 	0 	0 	0 	0 	0 	0 	0 	5 	0 	0 	0 	1 	0 	0 	0 	0 	0 	0 	2 	0 	0 	0 	0 	0 	0 	0 	0 	0 	0 	0 	0 	0 	0 	0 	0 	0 	0 	0 	0 	0 	0 	0 	0 	0 	0 	0 	0 	0 	0 	0 	0 	0 	0 	0 	0 	0 	0 	0 	0 	0 	0 	0 	0 	0 	0 	0 	0 	0 	0 	0 	0 	0 	0 	0 	0 	0 	0 	0 	0 	0 	0 	0 	0 	0 	0 
 2007 	24 	35 	3 	0 	0 	0 	0 	0 	0 	0 	2 	30 	0 	4 	0 	0 	0 	0 	0 	0 	0 	0 	0 	0 	0 	0 	0 	0 	0 	8 	0 	0 	0 	0 	0 	0 	0 	0 	0 	0 	0 	1 	6 	0 	0 	0 	0 	0 	0 	0 	0 	0 	3 	0 	0 	0 	0 	0 	0 	0 	0 	0 	0 	0 	0 	0 	0 	0 	0 	0 	0 	0 	0 	0 	0 	0 	0 	0 	0 	0 	0 	0 	0 	0 	0 	0 	0 	0 	0 	0 	0 	0 	0 	0 	0 	0 	0 	0 	0 	0 	0 	0 	0 	1 	0 	0 	0 	0 	0 	0 	0 	0 	0 	0 	0 	0 	0 	0 	0 
 2008 	71 	70 	91 	0 	0 	0 	0 	0 	0 	0 	17 	17 	0 	8 	0 	0 	0 	0 	0 	0 	3 	0 	0 	0 	0 	0 	0 	0 	0 	8 	0 	0 	0 	0 	0 	0 	0 	0 	0 	0 	0 	0 	3 	0 	0 	0 	0 	0 	0 	0 	0 	0 	2 	0 	0 	0 	0 	0 	0 	0 	0 	0 	0 	0 	0 	0 	0 	0 	0 	0 	0 	0 	1 	0 	0 	0 	0 	0 	0 	2 	0 	1 	0 	0 	0 	0 	0 	0 	0 	0 	0 	0 	0 	0 	0 	0 	0 	0 	0 	0 	0 	0 	0 	0 	0 	0 	0 	0 	0 	0 	0 	0 	0 	0 	0 	0 	0 	0 	0 
 2009 	98 	108 	77 	0 	34 	0 	0 	0 	0 	0 	8 	11 	0 	3 	0 	0 	0 	0 	0 	0 	10 	0 	0 	9 	0 	0 	0 	0 	0 	2 	0 	0 	0 	0 	0 	0 	0 	0 	0 	0 	0 	0 	0 	0 	0 	0 	0 	0 	0 	0 	0 	0 	0 	0 	0 	0 	0 	0 	0 	0 	0 	0 	0 	0 	0 	0 	2 	0 	0 	0 	0 	0 	0 	0 	0 	0 	0 	0 	0 	0 	0 	1 	0 	0 	0 	0 	0 	0 	0 	0 	0 	0 	0 	0 	0 	0 	0 	0 	0 	0 	0 	0 	0 	0 	0 	0 	0 	0 	0 	0 	0 	1 	0 	0 	0 	0 	0 	0 	0 
 2010 	118 	64 	33 	0 	19 	0 	0 	0 	0 	0 	16 	0 	0 	2 	0 	0 	0 	0 	0 	0 	3 	14 	0 	3 	0 	0 	0 	0 	0 	0 	0 	0 	0 	0 	0 	0 	0 	0 	0 	0 	0 	0 	0 	0 	0 	0 	0 	0 	0 	0 	0 	0 	0 	0 	0 	0 	0 	0 	0 	0 	0 	0 	0 	0 	0 	0 	2 	0 	0 	0 	0 	0 	0 	0 	0 	0 	0 	0 	0 	0 	0 	0 	0 	0 	2 	0 	0 	0 	0 	0 	0 	0 	0 	0 	0 	0 	1 	0 	0 	0 	0 	0 	0 	0 	0 	0 	0 	0 	0 	0 	0 	0 	0 	0 	0 	0 	0 	0 	0 
 2011 	208 	92 	104 	0 	79 	30 	0 	0 	0 	2 	27 	0 	0 	10 	14 	17 	0 	8 	0 	0 	4 	19 	0 	3 	11 	0 	0 	0 	0 	0 	3 	0 	0 	0 	0 	0 	0 	0 	1 	0 	0 	0 	0 	0 	0 	2 	0 	0 	0 	0 	0 	0 	0 	0 	0 	0 	0 	0 	0 	0 	0 	0 	0 	0 	0 	0 	0 	0 	0 	0 	2 	0 	2 	0 	0 	0 	0 	0 	0 	0 	0 	0 	2 	0 	0 	0 	0 	0 	1 	0 	0 	0 	0 	0 	0 	0 	0 	0 	0 	0 	0 	0 	0 	0 	0 	0 	0 	0 	1 	0 	0 	0 	0 	0 	0 	0 	0 	0 	0 
 2012 	201 	49 	7 	6 	73 	71 	2 	0 	0 	10 	19 	1 	0 	6 	39 	49 	3 	8 	0 	0 	5 	3 	11 	3 	3 	0 	0 	0 	0 	0 	5 	0 	1 	0 	0 	0 	1 	0 	6 	2 	0 	0 	0 	3 	0 	0 	0 	0 	0 	0 	0 	0 	0 	0 	0 	0 	0 	0 	0 	0 	0 	0 	6 	0 	0 	0 	0 	0 	0 	0 	0 	0 	1 	0 	0 	1 	3 	0 	0 	0 	1 	0 	0 	0 	0 	0 	0 	0 	1 	0 	0 	0 	0 	0 	0 	0 	0 	1 	0 	0 	0 	0 	0 	0 	0 	0 	0 	1 	0 	0 	0 	0 	1 	0 	1 	0 	1 	0 	0 
 2013 	252 	55 	3 	6 	69 	55 	15 	0 	0 	10 	18 	2 	0 	8 	52 	23 	8 	11 	0 	0 	8 	0 	8 	8 	3 	0 	0 	0 	0 	0 	2 	0 	2 	0 	4 	0 	3 	0 	4 	3 	0 	3 	0 	6 	0 	1 	7 	8 	0 	0 	1 	0 	0 	0 	0 	2 	0 	3 	3 	0 	0 	1 	0 	0 	0 	0 	0 	0 	1 	0 	0 	2 	0 	3 	0 	2 	0 	1 	0 	0 	0 	0 	0 	0 	0 	0 	0 	0 	0 	0 	1 	0 	0 	0 	0 	0 	0 	0 	1 	0 	0 	0 	0 	0 	0 	0 	0 	0 	0 	0 	0 	0 	0 	0 	0 	1 	0 	0 	0 
 2014 	425 	36 	27 	12 	46 	52 	14 	0 	0 	17 	11 	4 	8 	2 	4 	9 	9 	0 	0 	0 	7 	0 	3 	1 	0 	0 	0 	0 	0 	0 	1 	11 	1 	0 	5 	2 	4 	2 	1 	6 	0 	0 	0 	0 	0 	0 	1 	0 	0 	0 	2 	0 	0 	0 	0 	3 	0 	1 	4 	1 	2 	5 	0 	0 	4 	0 	0 	0 	3 	0 	0 	1 	0 	1 	2 	0 	0 	1 	0 	0 	1 	0 	0 	0 	0 	0 	0 	0 	0 	0 	0 	1 	0 	0 	0 	0 	0 	0 	0 	1 	0 	0 	0 	0 	0 	1 	1 	0 	0 	0 	0 	0 	0 	0 	0 	0 	0 	0 	0 
 2015 	499 	10 	0 	38 	0 	28 	30 	48 	17 	28 	13 	2 	9 	4 	0 	0 	21 	0 	0 	18 	4 	0 	5 	0 	10 	5 	4 	0 	4 	0 	3 	2 	5 	0 	6 	2 	2 	1 	0 	0 	0 	0 	0 	0 	1 	0 	0 	0 	4 	0 	2 	0 	0 	2 	5 	1 	0 	3 	0 	2 	4 	0 	0 	0 	1 	0 	0 	0 	0 	1 	2 	0 	0 	0 	0 	0 	0 	0 	0 	0 	0 	0 	0 	2 	0 	0 	1 	0 	0 	2 	0 	0 	0 	0 	0 	0 	0 	0 	0 	0 	1 	0 	0 	0 	0 	0 	0 	0 	0 	1 	0 	0 	0 	0 	0 	0 	0 	0 	0 
 2016 	867 	6 	26 	215 	0 	17 	104 	108 	88 	37 	0 	2 	36 	11 	0 	0 	11 	0 	0 	30 	4 	0 	3 	0 	0 	9 	6 	0 	11 	0 	2 	4 	7 	0 	0 	4 	1 	7 	0 	0 	0 	0 	0 	0 	3 	1 	0 	0 	4 	3 	2 	0 	0 	2 	2 	1 	1 	0 	0 	3 	0 	0 	0 	0 	0 	0 	0 	4 	0 	0 	0 	0 	0 	0 	0 	0 	0 	0 	0 	0 	0 	0 	0 	0 	0 	2 	1 	2 	0 	0 	0 	0 	0 	0 	0 	1 	0 	0 	0 	0 	0 	0 	0 	0 	0 	0 	0 	0 	0 	0 	0 	0 	0 	0 	0 	0 	0 	1 	1 
 2017 	945 	7 	15 	82 	0 	24 	58 	38 	48 	34 	0 	22 	29 	9 	1 	0 	14 	17 	45 	3 	0 	0 	1 	0 	0 	9 	9 	22 	4 	0 	2 	1 	0 	0 	0 	3 	2 	2 	0 	0 	9 	0 	0 	0 	3 	0 	0 	0 	0 	3 	0 	7 	0 	1 	0 	0 	3 	0 	0 	0 	0 	0 	0 	4 	0 	5 	0 	1 	0 	3 	0 	1 	0 	0 	1 	0 	0 	1 	0 	0 	0 	0 	0 	0 	0 	0 	0 	0 	0 	0 	0 	0 	1 	1 	1 	0 	0 	0 	0 	0 	0 	1 	1 	0 	1 	0 	0 	0 	0 	0 	1 	0 	0 	1 	0 	0 	0 	0 	0 
 2018 	927 	1 	13 	32 	0 	11 	27 	20 	41 	14 	0 	7 	39 	3 	0 	0 	13 	25 	14 	0 	0 	0 	0 	0 	0 	3 	5 	0 	2 	0 	1 	0 	0 	16 	0 	2 	0 	0 	0 	0 	1 	0 	0 	0 	2 	0 	0 	0 	0 	1 	0 	0 	0 	2 	0 	0 	3 	0 	0 	1 	0 	0 	0 	2 	0 	0 	1 	0 	0 	0 	0 	0 	0 	0 	1 	0 	0 	0 	3 	0 	0 	0 	0 	0 	0 	0 	0 	0 	0 	0 	0 	0 	0 	0 	0 	0 	0 	0 	0 	0 	0 	0 	0 	0 	0 	0 	0 	0 	0 	0 	0 	0 	0 	0 	0 	0 	0 	0 	0 
