 year 	Andreas_T 	Charles_P 	Steffen_M 	Olivier_S 	Karsten_H 	Mathieu_M 	Michael_C 	David_P 	Afif_E 	Eric_M 	Gert_W 	Yaroslav_H 	Sebastian_H 	Sascha_S 	Nelson_A._de_O 	Steven_M._R 	Tony_T 	Luis_I 	Alexandre_M 	Liubov_C 	Thorsten_A 	Shayan_D 	Michael_H 	Sébastien_J 	Nilesh_P 	Jorge_Sebastião_S 	Andrei_Z 	K.S_B 	Dylan 	Aaron_M._U 
 2002 	139 	0 	0 	0 	76 	0 	0 	0 	0 	0 	0 	0 	0 	0 	0 	1 	0 	0 	0 	0 	0 	0 	0 	0 	0 	0 	0 	0 	0 	1 
 2003 	55 	0 	0 	0 	20 	0 	0 	0 	0 	0 	0 	0 	0 	0 	0 	0 	0 	0 	0 	0 	0 	0 	0 	0 	0 	0 	0 	0 	0 	2 
 2004 	80 	0 	4 	0 	8 	1 	0 	0 	0 	0 	0 	0 	0 	0 	0 	0 	0 	0 	0 	0 	0 	0 	0 	0 	0 	0 	0 	0 	0 	0 
 2005 	148 	0 	27 	0 	17 	0 	0 	0 	0 	0 	0 	0 	0 	0 	22 	0 	0 	0 	0 	0 	0 	0 	5 	0 	0 	0 	0 	0 	0 	2 
 2006 	109 	73 	6 	0 	17 	0 	0 	0 	0 	0 	0 	0 	0 	0 	13 	13 	0 	0 	0 	0 	0 	0 	27 	0 	0 	0 	0 	0 	0 	0 
 2007 	325 	233 	71 	0 	34 	0 	0 	147 	0 	0 	0 	6 	7 	0 	58 	1 	0 	0 	0 	0 	0 	0 	21 	0 	0 	0 	0 	0 	0 	5 
 2008 	466 	335 	36 	0 	42 	86 	0 	117 	0 	0 	8 	0 	17 	0 	55 	33 	0 	0 	0 	0 	0 	0 	10 	0 	0 	0 	0 	0 	0 	2 
 2009 	411 	156 	68 	0 	55 	143 	0 	41 	0 	23 	0 	1 	23 	0 	20 	15 	0 	0 	0 	0 	0 	0 	33 	0 	0 	0 	0 	0 	0 	4 
 2010 	187 	59 	28 	0 	44 	15 	0 	0 	0 	18 	0 	10 	22 	0 	10 	12 	0 	0 	0 	0 	0 	0 	17 	0 	0 	0 	0 	0 	0 	5 
 2011 	669 	145 	110 	180 	119 	101 	0 	8 	0 	31 	0 	30 	99 	0 	13 	13 	24 	0 	30 	0 	67 	0 	9 	0 	0 	0 	11 	15 	0 	16 
 2012 	865 	184 	35 	101 	92 	61 	7 	2 	0 	142 	29 	128 	21 	1 	0 	28 	1 	120 	45 	0 	28 	0 	4 	0 	0 	0 	45 	62 	0 	6 
 2013 	441 	69 	19 	45 	30 	27 	0 	0 	0 	66 	33 	38 	18 	13 	0 	5 	22 	12 	8 	0 	9 	0 	1 	0 	0 	9 	22 	6 	0 	0 
 2014 	636 	68 	25 	58 	52 	11 	1 	0 	0 	26 	71 	46 	3 	25 	0 	19 	18 	31 	18 	0 	29 	0 	0 	0 	0 	97 	6 	21 	26 	3 
 2015 	695 	48 	21 	72 	46 	1 	92 	0 	136 	0 	63 	12 	1 	18 	0 	32 	0 	0 	17 	0 	4 	0 	1 	68 	0 	1 	16 	0 	14 	0 
 2016 	764 	18 	51 	85 	34 	0 	109 	0 	119 	1 	73 	5 	4 	102 	0 	3 	1 	0 	7 	0 	2 	0 	2 	17 	0 	0 	2 	0 	57 	10 
 2017 	473 	18 	62 	33 	4 	0 	29 	0 	42 	1 	18 	7 	0 	18 	0 	0 	0 	0 	10 	0 	5 	0 	0 	9 	0 	0 	2 	0 	7 	2 
 2018 	438 	19 	98 	93 	0 	2 	36 	0 	14 	0 	4 	8 	0 	16 	0 	0 	53 	0 	11 	84 	1 	0 	0 	9 	0 	0 	0 	0 	0 	11 
 2019 	519 	4 	102 	51 	3 	0 	82 	0 	3 	0 	2 	0 	0 	12 	0 	1 	38 	0 	9 	63 	2 	93 	0 	3 	0 	0 	0 	0 	0 	4 
 2020 	574 	16 	168 	7 	1 	0 	74 	0 	0 	4 	2 	0 	1 	11 	0 	8 	22 	0 	4 	10 	2 	55 	0 	8 	109 	0 	0 	0 	0 	28 
