 year 	Christophe_P 	Rafael_L 	Ondrej_C 	Sylvestre_L 	Adam_C_Powell_I 	Johannes_R 	Lucas_N 	Daniel_R 	Daniel_L 	Nobuhiro_I 	Andreas_T 	Kumar_A 	Davis_Micro_L 	Thomas_W 	Everbuying_wholesale_L 	Claro 	Frank_S._T 	Vivo_S 	Martin_M 	Ivan_L 	Matthias_K 	Sam_H 	glpk_x 	Jordi_Gutiérrez_H 	Albert_H 	Steven_M._R 	Cyril_B 	Stephane_D 	聚划算 	Joerg_J 
 2006 	131 	50 	0 	0 	0 	0 	0 	0 	0 	0 	0 	0 	0 	9 	0 	0 	0 	0 	0 	0 	0 	0 	0 	0 	0 	0 	0 	4 	0 	1 
 2007 	280 	213 	135 	0 	6 	0 	3 	41 	4 	0 	0 	0 	0 	3 	0 	0 	20 	0 	17 	0 	3 	8 	0 	0 	0 	0 	3 	14 	0 	6 
 2008 	196 	160 	217 	17 	44 	25 	8 	7 	34 	1 	11 	11 	0 	6 	0 	27 	4 	0 	4 	0 	3 	12 	0 	0 	13 	2 	1 	0 	0 	6 
 2009 	65 	58 	36 	38 	41 	51 	26 	0 	5 	5 	5 	4 	0 	2 	0 	0 	0 	24 	3 	0 	3 	0 	0 	6 	5 	10 	5 	0 	0 	4 
 2010 	19 	1 	0 	52 	16 	19 	11 	0 	2 	23 	9 	17 	16 	9 	14 	0 	0 	0 	0 	0 	5 	0 	19 	8 	1 	5 	10 	0 	0 	0 
 2011 	0 	0 	0 	12 	0 	0 	4 	0 	0 	12 	0 	0 	14 	0 	14 	0 	0 	0 	0 	20 	4 	0 	0 	5 	0 	1 	0 	0 	0 	0 
 2012 	0 	0 	0 	0 	0 	0 	1 	0 	0 	0 	0 	0 	0 	0 	0 	0 	0 	0 	0 	0 	0 	0 	0 	0 	0 	0 	0 	0 	0 	0 
 2013 	0 	0 	0 	3 	0 	0 	0 	0 	0 	0 	6 	0 	0 	0 	0 	0 	0 	0 	0 	0 	1 	0 	0 	0 	0 	1 	0 	0 	0 	0 
 2014 	0 	0 	0 	0 	0 	0 	0 	0 	1 	0 	3 	0 	0 	0 	0 	0 	0 	0 	0 	0 	1 	0 	0 	0 	0 	0 	0 	0 	1 	0 
 2015 	0 	0 	0 	0 	0 	0 	0 	0 	0 	0 	0 	0 	0 	0 	0 	0 	0 	0 	0 	0 	0 	0 	0 	0 	0 	0 	0 	0 	16 	0 
