 year 	Sylvestre_L 	Anton_G 	Ole_S 	Christophe_P 	Adam_C._Powell_I 	Andreas_T 	Steve_M._R 	Picca_F 	Thibaut_P 	Johannes_R 	Sébastien_V 	Ansgar_B 	Dominique_B 	Scott_H 	Kumar_A 	Lifeng_S 	Joost_van_B 	Dimitrios_E 	Torsten_W 	Denis_B 	Thomas_K 	Jerome_B 	Barak_A._P 	Nobuhiro_I 	Teemu_I 	Mathieu_M 	Ralf_T 	Drew_P 	Gilles_F 	Ghislain_Antony_V 	Kartik_M 	Julien_P 	Julien_C 	David_B 	Christophe_T 	Gudjon_I._G 	D_H 	Lucas_N 	Jose_Luis_R 	Tobias_H 	Filippo_R 	Thomas_M 	Frank_S._T 	Dima_K 	Miles_L 	Antonio_V 	Cédric_B 	Boris_P 	Ko_van_der_S 	Julian_T 	Andreas_B._M 	Ruben_U 	Charles_P 	Jan_B 	Leopold_P 	Manuel_P 	Daniel_S 	Georges_K 	Ruben_M 	Leo_S 	Pierre_S 	Andrea_P 	Dimitri_John_L 	Doug_T 	Gianfranco_C 	Salvatore_B 	Serge_G 	Andy_S 	Simon_J 	Sergey_B_K 	Julián_Moreno_P 	Damien_C 	Alastair_M 	Lisandro_Damián_Nicanor_Pérez_M 	Fabien_S 	Rafael_L 	Torquil_Macdonald_S 	Aron_X 	Gabriele_G 	Balint_R 	Pablo_O 	Yaroslav_H 	Dmitry_E._O 	Rene_E 	Bastien_R 	Steffen_M 	Josue_O 	Konstantinos_P 	أحمد_المحمودي 	Ferdinand_G 	Toby_S 	Michael_W 	Tino_D 	Giuseppe_I 	Philipp_H 	Bernhard_R._L 	Matthias_M 	Eugen_W 	Sundaram_R 	Agustin_Martin_D 	Patrick_H 	Rupert_S 	Roelof_B 	Mike_N 	Dirk_E 	Alexander_D 	Jordan_M 	Haïkel_G 	Philip_R 	YunQiang_S 	Denis_L 	Debian_Science_T 	Koichi_A 	Jochen_S 	Colin_W 	Graham_I 	Wolfgang_F 	André_G 	Evgeni_G 	Lionel_Elie_M 	Florian_R 	Gerber_van_der_G 
 2000 	0 	0 	0 	0 	2 	0 	0 	0 	0 	0 	0 	0 	0 	0 	0 	0 	0 	0 	0 	0 	0 	0 	0 	0 	0 	0 	0 	0 	0 	0 	0 	0 	0 	0 	0 	0 	0 	0 	0 	0 	0 	0 	0 	0 	0 	0 	0 	0 	0 	0 	0 	0 	0 	0 	0 	0 	0 	0 	0 	0 	0 	0 	0 	0 	0 	0 	0 	0 	0 	0 	0 	0 	0 	0 	0 	0 	0 	0 	0 	0 	0 	0 	0 	0 	0 	0 	0 	0 	0 	0 	0 	0 	0 	0 	0 	0 	0 	0 	0 	0 	0 	0 	0 	0 	0 	0 	0 	0 	0 	0 	0 	0 	0 	0 	0 	0 	0 	0 	0 	0 	0 	0 
 2001 	0 	0 	0 	0 	9 	10 	8 	0 	0 	0 	0 	0 	0 	0 	0 	0 	0 	0 	2 	0 	0 	0 	0 	0 	0 	0 	0 	5 	0 	0 	0 	0 	0 	0 	0 	0 	0 	0 	0 	0 	0 	0 	0 	0 	0 	0 	0 	0 	0 	0 	0 	0 	0 	0 	0 	0 	0 	0 	0 	0 	0 	0 	0 	0 	0 	0 	0 	0 	0 	0 	0 	0 	0 	0 	0 	0 	0 	0 	0 	0 	0 	0 	0 	0 	0 	0 	0 	0 	0 	0 	0 	0 	0 	0 	0 	0 	0 	0 	0 	0 	0 	0 	0 	0 	0 	0 	0 	0 	0 	0 	0 	0 	0 	0 	0 	0 	0 	0 	0 	0 	0 	0 
 2002 	0 	0 	0 	0 	20 	7 	10 	0 	0 	0 	0 	0 	0 	0 	0 	0 	0 	0 	7 	0 	0 	0 	0 	0 	0 	0 	7 	1 	0 	0 	0 	0 	0 	0 	0 	0 	0 	0 	0 	0 	0 	0 	0 	0 	0 	0 	0 	0 	0 	0 	0 	0 	0 	0 	0 	0 	0 	0 	0 	0 	0 	0 	0 	0 	0 	0 	0 	0 	0 	0 	0 	0 	0 	0 	0 	0 	0 	0 	0 	0 	0 	0 	0 	0 	0 	0 	0 	0 	0 	0 	0 	0 	0 	0 	0 	0 	0 	0 	0 	0 	0 	0 	0 	0 	0 	0 	0 	0 	0 	0 	0 	0 	0 	0 	0 	0 	0 	0 	0 	0 	0 	0 
 2003 	0 	0 	0 	0 	21 	12 	15 	0 	0 	0 	0 	0 	0 	0 	0 	0 	0 	0 	8 	0 	0 	0 	2 	0 	0 	0 	2 	1 	0 	0 	0 	0 	0 	0 	0 	0 	0 	0 	0 	0 	0 	0 	0 	0 	0 	0 	0 	0 	0 	0 	0 	0 	0 	0 	0 	0 	0 	0 	0 	0 	0 	0 	0 	0 	0 	0 	0 	0 	0 	0 	0 	0 	0 	0 	0 	0 	0 	0 	0 	0 	0 	0 	0 	0 	0 	0 	0 	0 	0 	0 	0 	0 	0 	0 	0 	0 	0 	0 	0 	0 	0 	0 	0 	0 	0 	0 	0 	0 	0 	0 	0 	0 	0 	0 	0 	0 	0 	0 	0 	0 	0 	0 
 2004 	0 	0 	0 	2 	11 	9 	27 	0 	0 	0 	0 	0 	0 	0 	0 	0 	0 	0 	17 	0 	0 	0 	1 	0 	0 	0 	4 	10 	0 	0 	0 	0 	0 	0 	0 	0 	0 	0 	0 	0 	0 	0 	0 	0 	0 	0 	0 	0 	0 	0 	0 	0 	0 	0 	0 	0 	0 	0 	0 	0 	0 	0 	0 	0 	0 	0 	0 	0 	0 	0 	0 	0 	0 	0 	0 	0 	0 	0 	0 	0 	0 	0 	0 	0 	0 	0 	0 	0 	0 	0 	0 	0 	0 	0 	0 	0 	0 	0 	0 	0 	0 	0 	0 	0 	0 	0 	0 	0 	0 	0 	0 	0 	0 	0 	0 	0 	0 	0 	0 	0 	0 	0 
 2005 	0 	0 	0 	18 	14 	5 	19 	0 	0 	0 	0 	0 	0 	0 	0 	0 	0 	0 	3 	0 	0 	0 	0 	0 	0 	0 	11 	1 	0 	0 	0 	0 	0 	0 	0 	0 	0 	0 	0 	0 	0 	0 	0 	0 	0 	0 	0 	0 	0 	0 	0 	0 	0 	0 	0 	0 	0 	0 	0 	0 	0 	0 	0 	0 	0 	0 	0 	0 	0 	0 	0 	0 	0 	0 	0 	0 	0 	0 	0 	0 	0 	0 	0 	0 	0 	0 	0 	0 	0 	0 	0 	0 	0 	0 	0 	0 	0 	0 	0 	0 	0 	0 	0 	0 	0 	0 	0 	0 	0 	0 	0 	0 	0 	0 	0 	0 	0 	0 	0 	0 	0 	0 
 2006 	0 	0 	0 	29 	6 	8 	25 	0 	7 	0 	0 	0 	0 	0 	0 	0 	0 	0 	12 	0 	0 	0 	3 	0 	2 	0 	0 	3 	0 	0 	0 	0 	0 	0 	0 	0 	0 	0 	0 	0 	0 	0 	0 	0 	0 	0 	0 	0 	0 	0 	0 	0 	0 	0 	0 	0 	0 	0 	0 	0 	0 	0 	0 	0 	0 	0 	0 	0 	0 	0 	0 	0 	0 	0 	0 	0 	0 	0 	0 	0 	0 	0 	0 	0 	0 	0 	0 	0 	0 	0 	0 	0 	0 	0 	0 	0 	0 	0 	0 	0 	0 	0 	0 	0 	0 	0 	0 	0 	0 	0 	0 	0 	0 	0 	0 	0 	0 	0 	0 	0 	0 	0 
 2007 	1 	0 	0 	35 	9 	17 	17 	0 	4 	0 	0 	0 	0 	0 	0 	0 	0 	0 	6 	0 	0 	0 	0 	0 	4 	0 	1 	1 	0 	0 	0 	0 	0 	1 	0 	6 	0 	0 	0 	0 	0 	0 	2 	0 	0 	0 	0 	0 	0 	0 	0 	0 	0 	0 	0 	0 	0 	0 	0 	0 	0 	0 	0 	0 	0 	0 	0 	0 	0 	0 	0 	0 	0 	0 	0 	0 	0 	0 	0 	0 	0 	0 	0 	0 	0 	0 	0 	0 	0 	0 	0 	0 	0 	0 	0 	0 	0 	0 	0 	0 	0 	0 	0 	0 	0 	0 	0 	0 	0 	0 	0 	0 	0 	0 	0 	0 	0 	0 	0 	0 	0 	0 
 2008 	30 	0 	0 	42 	42 	20 	16 	0 	30 	0 	0 	0 	2 	0 	3 	0 	0 	0 	8 	0 	0 	0 	2 	0 	6 	0 	2 	2 	0 	0 	0 	0 	0 	7 	0 	4 	0 	0 	0 	0 	0 	0 	1 	0 	0 	0 	0 	0 	0 	0 	0 	0 	0 	0 	0 	3 	0 	0 	4 	0 	0 	0 	0 	0 	0 	0 	2 	0 	0 	0 	0 	0 	0 	0 	0 	0 	0 	0 	0 	0 	0 	0 	0 	0 	0 	0 	0 	0 	1 	0 	0 	0 	0 	0 	0 	0 	0 	0 	0 	0 	0 	0 	0 	0 	0 	0 	1 	0 	0 	0 	0 	0 	0 	0 	0 	0 	0 	1 	0 	0 	0 	0 
 2009 	88 	0 	0 	33 	38 	54 	23 	0 	10 	13 	0 	0 	19 	0 	8 	0 	0 	0 	0 	0 	0 	0 	0 	2 	11 	0 	3 	9 	3 	0 	0 	0 	0 	6 	0 	5 	2 	6 	0 	0 	6 	0 	8 	0 	0 	0 	0 	0 	0 	0 	0 	0 	3 	6 	0 	7 	0 	0 	2 	0 	0 	0 	0 	0 	0 	1 	1 	0 	0 	0 	0 	0 	0 	0 	0 	0 	0 	0 	0 	0 	0 	0 	2 	0 	1 	0 	0 	3 	3 	0 	0 	0 	0 	2 	0 	0 	0 	0 	0 	0 	0 	0 	0 	0 	0 	0 	1 	0 	0 	0 	0 	0 	0 	0 	0 	0 	0 	0 	0 	1 	0 	0 
 2010 	141 	0 	0 	60 	57 	40 	11 	2 	22 	49 	0 	0 	22 	6 	9 	0 	0 	2 	0 	0 	0 	0 	12 	5 	7 	4 	0 	2 	0 	0 	0 	0 	0 	8 	6 	7 	6 	14 	0 	0 	5 	0 	3 	0 	0 	0 	0 	0 	0 	0 	0 	0 	1 	0 	0 	0 	0 	0 	3 	0 	0 	0 	0 	0 	0 	3 	1 	0 	0 	0 	0 	0 	0 	0 	0 	0 	0 	0 	3 	0 	0 	0 	2 	0 	0 	0 	0 	1 	0 	3 	0 	0 	0 	1 	0 	0 	0 	0 	2 	0 	0 	0 	0 	0 	0 	0 	0 	0 	0 	0 	0 	0 	0 	0 	0 	0 	0 	0 	0 	0 	0 	0 
 2011 	130 	58 	4 	32 	40 	20 	17 	45 	9 	60 	0 	0 	32 	26 	17 	5 	35 	22 	0 	0 	19 	0 	6 	16 	6 	10 	9 	2 	5 	0 	0 	0 	0 	5 	8 	3 	5 	8 	0 	0 	4 	0 	4 	0 	0 	0 	0 	0 	2 	3 	0 	0 	2 	2 	0 	1 	0 	0 	1 	0 	4 	0 	0 	0 	0 	3 	2 	5 	0 	0 	0 	2 	3 	6 	0 	0 	3 	0 	0 	0 	0 	0 	0 	0 	0 	1 	0 	0 	0 	1 	0 	1 	0 	0 	0 	1 	0 	0 	0 	0 	0 	0 	0 	0 	0 	0 	0 	1 	0 	0 	0 	0 	0 	0 	0 	0 	0 	0 	0 	0 	0 	0 
 2012 	134 	108 	49 	12 	16 	15 	6 	28 	53 	10 	16 	18 	5 	29 	13 	29 	10 	17 	0 	14 	9 	4 	2 	13 	2 	15 	3 	2 	1 	0 	0 	2 	27 	2 	13 	3 	4 	0 	0 	0 	5 	0 	2 	3 	0 	4 	0 	3 	12 	6 	0 	0 	1 	1 	0 	0 	0 	0 	0 	0 	4 	5 	3 	0 	0 	1 	2 	1 	0 	0 	0 	0 	2 	0 	0 	1 	0 	1 	0 	0 	0 	4 	0 	0 	3 	0 	0 	0 	0 	0 	0 	2 	0 	0 	0 	2 	0 	0 	0 	2 	0 	0 	0 	0 	0 	0 	0 	1 	0 	0 	0 	0 	1 	0 	0 	0 	0 	0 	1 	0 	0 	1 
 2013 	67 	144 	74 	11 	0 	15 	12 	54 	13 	9 	48 	11 	13 	19 	16 	34 	15 	8 	0 	21 	7 	4 	2 	8 	8 	13 	0 	1 	1 	1 	0 	14 	4 	2 	3 	0 	7 	0 	0 	15 	0 	14 	1 	10 	15 	11 	16 	13 	6 	6 	13 	0 	6 	2 	1 	0 	0 	1 	0 	0 	2 	5 	5 	0 	0 	0 	0 	2 	1 	4 	3 	2 	1 	0 	0 	0 	2 	0 	0 	0 	4 	1 	0 	0 	0 	0 	2 	0 	0 	0 	0 	0 	0 	0 	0 	0 	0 	0 	0 	0 	0 	0 	0 	2 	2 	2 	0 	0 	0 	0 	0 	0 	0 	0 	1 	0 	0 	0 	0 	0 	1 	0 
 2014 	25 	184 	127 	20 	0 	48 	3 	44 	24 	18 	54 	55 	0 	12 	14 	2 	4 	11 	0 	16 	19 	30 	17 	6 	0 	2 	2 	0 	17 	10 	9 	11 	3 	1 	0 	1 	4 	0 	17 	5 	5 	9 	2 	10 	8 	7 	4 	4 	0 	4 	5 	6 	0 	1 	10 	0 	3 	7 	0 	10 	0 	0 	2 	0 	3 	0 	0 	0 	6 	2 	4 	1 	1 	0 	1 	5 	0 	4 	2 	1 	1 	0 	0 	4 	0 	3 	1 	0 	0 	0 	4 	0 	1 	0 	0 	0 	2 	2 	0 	0 	0 	2 	0 	0 	0 	0 	0 	0 	2 	1 	1 	1 	0 	0 	0 	1 	1 	0 	0 	0 	0 	0 
 2015 	3 	70 	97 	0 	0 	3 	5 	20 	12 	11 	14 	19 	0 	0 	8 	0 	4 	6 	0 	8 	3 	17 	7 	0 	0 	0 	0 	0 	10 	25 	27 	9 	0 	1 	0 	0 	1 	1 	9 	5 	0 	0 	0 	0 	0 	0 	0 	0 	0 	0 	0 	9 	0 	0 	1 	0 	8 	3 	0 	0 	0 	0 	0 	9 	6 	0 	0 	0 	1 	2 	0 	2 	0 	0 	5 	0 	0 	0 	0 	4 	0 	0 	0 	0 	0 	0 	1 	0 	0 	0 	0 	0 	2 	0 	3 	0 	0 	0 	0 	0 	2 	0 	2 	0 	0 	0 	0 	0 	0 	0 	0 	0 	0 	1 	0 	0 	0 	0 	0 	0 	0 	0 
