 year	Samuel T.	Mario L.	Jason W.	Kenny H.	Veli-Pekka T.	Sebastian D.	Frans P.	Andor D.	Simon B.	Cyril B. 
 2003	0	72	0	14	0	0	0	0	0	0
 2004	4	46	8	33	47	0	0	33	0	0
 2005	19	11	1	9	0	0	1	0	0	0
 2006	77	21	8	0	0	16	4	5	20	0
 2007	27	50	21	6	0	28	4	1	4	0
 2008	139	46	41	8	0	0	30	0	3	3
 2009	105	49	19	5	0	0	2	0	5	22
 2010	37	12	5	7	0	0	0	0	0	6

