 year	Andreas_T	Michael_Robin_C	Nilesh_P	Steffen_M	Dylan_A	Charles_P	Sascha_S	Gert_W	Olivier_S	Yaroslav_H	Alexandre_M	Afif_E	Étienne_M	Sebastien_J	Rafael_L	Aaron_M._U	Mathieu_M	Steve_M._R	Thorsten_A	Laszlo_K	Graham_I	Pierre_G	Julien_D	Pranav_B	Liubov_C	Shayan_D	Kevin_M	Maarten_L._H	Andrei_Z	Fabian_K	Julien_L	Dominique_B	Ghislain_Antony_V	Philipp_B	Gregory_C._S	Nadiya_S	Andrius_M	tony_m	Flavien_B	Gianfranco_C	Nelson_A._de_O	Iain_R._L	Martin_U	Vincent_D	Thiago_Franco_de_M	Sao_I_K	Helmut_G	Diane_T	Dmitry_S	Amul_S	Emmanuel_B	Mattia_R	Ivo_M	Sergio_Durigan_J	Tomasz_B	Rebecca_N._P	Sébastien_V	Roland_F	Yavor_D	David_P	Dirk_E	Jerome_B	Drew_P	Juhani_N	Benjamin_R	Ognyan_K	David_Miguel_Susano_P	Alba_C	Tobias_H	Benjamin_E	David_P	gregor_h	Paul_N	Gordon_B	Emilien_K	L.C._K	Matthias_K	Antoni_V	Jorge_S	Alois_S	Sandro_T	Dimitri_John_L	Tim_B	Anton_G	Tomas_Di_D	Manuel_P	xiao_sheng_w	Sebastiaan_C	Guy_Y	Emmanuel_P	Simon_K	Miriam_R	Sébastien_B	Andrei_R	Navid_F	Frank_B._B	Alf_G	Tássia_Camões_A	Danny_E	Scott_K	Filippo_R	Robbi_N	Balint_R	Malihe_A	Stuart_P	Dmitrijs_L	Sukhbir_S	Adrian_B	Gleisson_Jesuino_Joaquim_C	Vojtěch_K	Georges_K	bertrand_N	Stefan_A	Elmar_P	Karolis_K	Frédéric_B	Pablo_L	zhao_f	Tony_T	Christopher_H	Çağrı_U	Bastian_B	Stephan_S	Christian_M._A
 2001	11	0	0	0	0	0	0	0	0	0	0	0	0	0	0	12	0	0	0	0	0	0	0	0	0	0	0	0	0	0	0	0	0	0	0	0	0	0	0	0	0	0	0	0	0	0	0	0	0	0	0	0	0	0	0	0	0	0	0	0	0	0	0	0	0	0	0	0	0	0	0	0	0	0	0	0	0	0	0	0	0	0	0	0	0	0	0	0	0	0	0	0	0	0	0	0	0	0	0	0	0	0	0	0	0	0	0	0	0	0	0	0	0	0	0	0	0	0	0	0	0	0	0	0
 2002	1	0	0	0	0	0	0	0	0	0	0	0	0	0	0	10	0	2	0	0	0	0	0	0	0	0	0	0	0	0	0	0	0	0	0	0	0	0	0	0	0	0	0	0	0	0	0	0	0	0	0	0	0	0	0	0	0	0	0	0	0	0	0	0	0	0	0	0	0	0	0	0	0	0	0	0	0	0	0	0	0	0	0	0	0	0	0	0	0	0	0	0	0	0	0	0	0	0	0	0	0	0	0	0	0	0	0	0	0	0	0	0	0	0	0	0	0	0	0	0	0	0	0	0
 2003	7	0	0	0	0	0	0	0	0	0	0	0	0	0	0	11	0	2	0	0	0	0	0	0	0	0	0	0	0	0	0	0	0	0	0	0	0	0	0	0	0	0	0	0	0	0	0	0	0	0	0	0	0	0	0	0	0	0	0	0	0	0	0	0	0	0	0	0	0	0	0	0	0	0	0	0	0	0	0	0	0	0	0	0	0	0	0	0	0	0	0	0	0	0	0	0	0	0	0	0	0	0	0	0	0	0	0	0	0	0	0	0	0	0	0	0	0	0	0	0	0	0	0	0
 2004	14	0	0	0	0	0	0	0	0	0	0	0	0	0	0	6	0	2	0	0	0	0	0	0	0	0	0	0	0	0	0	0	0	0	0	0	0	0	0	0	0	0	0	0	0	0	0	0	0	0	0	0	0	0	0	0	0	0	0	0	0	0	0	0	0	0	0	0	0	0	0	0	0	0	0	0	0	0	0	0	0	0	0	0	0	0	0	0	0	0	0	0	0	0	0	0	0	0	0	0	0	0	0	0	0	0	0	0	0	0	0	0	0	0	0	0	0	0	0	0	0	0	0	0
 2005	19	0	0	0	0	0	0	0	0	0	0	0	0	0	8	6	0	2	0	0	0	0	0	0	0	0	0	0	0	0	0	0	0	0	0	0	0	0	0	0	0	0	0	0	0	0	0	0	0	0	0	0	0	0	0	0	0	0	0	0	0	0	0	0	0	0	0	0	0	0	0	0	0	0	0	0	0	0	0	0	0	0	0	0	0	0	0	0	0	0	0	0	0	0	0	0	0	0	0	0	0	0	0	0	0	0	0	0	0	0	0	0	0	0	0	0	0	0	0	0	0	0	0	0
 2006	17	0	0	0	0	14	0	0	0	1	0	0	0	0	16	6	0	5	0	0	0	0	0	0	0	0	0	0	0	0	0	0	0	0	0	0	0	0	0	0	2	0	0	0	0	0	0	0	0	0	0	0	0	0	0	0	0	0	0	0	5	0	0	0	0	0	0	0	0	0	0	0	0	0	0	0	0	0	0	0	0	0	0	0	0	0	0	0	0	0	0	0	0	0	0	0	0	0	0	0	0	0	0	0	0	0	0	0	0	0	0	0	0	0	0	0	0	0	0	0	0	0	0	0
 2007	24	0	0	3	0	35	0	0	0	2	0	0	0	0	30	4	0	2	0	0	0	0	0	0	0	0	0	0	0	0	0	0	0	0	0	0	0	0	0	0	8	0	0	0	0	0	0	0	0	0	0	0	0	0	0	0	0	0	0	6	1	0	0	0	0	0	0	0	0	0	0	0	0	0	0	0	0	0	0	0	0	0	0	0	0	0	0	0	0	0	0	0	0	0	0	0	0	0	0	0	0	0	0	0	0	0	0	0	0	0	0	0	0	0	0	0	0	0	0	0	0	0	0	0
 2008	66	0	0	87	0	68	0	0	0	1	0	0	0	0	17	8	0	17	0	0	0	0	0	0	0	0	0	0	0	0	0	0	0	0	0	0	0	0	0	0	7	0	0	0	0	0	0	0	0	0	0	0	0	0	0	0	0	0	0	3	0	0	0	0	0	0	0	0	0	0	0	0	0	0	0	0	0	0	0	0	0	0	0	0	0	1	0	0	0	0	0	0	0	0	0	0	0	0	0	0	0	0	0	0	0	0	0	0	0	0	0	0	0	0	0	0	0	0	0	0	0	0	0	0
 2009	97	0	0	75	0	104	0	0	0	8	0	0	0	0	11	3	0	8	0	0	0	0	0	0	0	0	0	0	0	0	0	0	0	9	0	0	0	0	0	0	2	0	0	0	0	0	0	0	0	0	0	0	0	0	0	0	0	0	2	0	0	0	0	0	0	0	0	0	0	0	0	0	0	0	0	0	0	0	0	0	0	0	0	0	0	0	0	0	0	0	0	0	0	0	0	0	0	0	0	0	0	0	0	0	0	0	0	0	0	0	0	0	0	0	0	0	0	0	0	0	0	0	0	0
 2010	110	0	0	33	0	63	0	0	0	20	0	0	0	0	0	2	0	16	0	0	0	0	0	0	0	0	0	0	0	0	0	0	0	3	0	0	0	0	0	0	0	0	0	0	0	0	0	0	0	0	0	0	0	0	0	0	0	0	2	0	0	0	0	0	0	0	0	0	0	0	0	0	0	0	0	0	0	0	0	0	0	0	0	0	0	0	0	0	0	0	0	0	0	0	0	0	0	0	0	0	0	0	0	0	0	0	0	0	0	0	0	0	0	0	0	0	0	0	0	0	0	0	0	0
 2011	203	0	0	102	0	91	0	0	0	37	2	0	0	0	0	10	0	24	12	16	0	0	8	0	0	0	0	0	0	0	0	12	0	3	3	0	0	0	0	0	0	0	0	0	0	0	0	0	0	0	0	0	1	0	0	0	0	0	0	0	0	0	0	0	0	0	0	0	0	0	0	0	0	0	0	0	0	0	0	0	0	0	2	0	0	2	0	0	0	0	0	0	0	0	0	0	0	0	0	0	0	0	0	0	0	0	0	0	0	0	0	0	0	0	0	0	0	0	0	0	0	0	0	0
 2012	197	0	0	7	0	49	6	2	61	45	10	0	0	3	1	6	41	15	39	49	0	0	8	0	0	0	0	0	13	0	0	4	0	3	5	0	0	0	0	0	0	0	0	1	1	0	0	0	0	0	0	0	6	0	0	0	0	0	0	0	0	0	0	0	0	0	0	0	0	0	0	0	0	0	0	0	0	0	0	0	0	0	0	0	0	1	0	0	1	0	0	0	1	0	0	0	0	0	0	0	0	0	0	0	0	0	0	0	0	0	0	0	0	0	0	0	0	0	0	0	0	0	0	0
 2013	249	0	0	3	0	55	6	14	55	17	10	0	0	8	2	8	69	18	52	23	0	0	11	0	0	0	0	1	9	0	0	3	0	8	2	0	0	0	0	0	0	0	0	2	3	0	0	2	3	0	0	0	4	0	0	0	0	0	0	0	3	0	0	0	0	7	0	0	3	1	2	0	0	0	3	1	0	0	0	0	0	4	0	0	3	0	0	0	2	0	1	1	0	0	0	0	0	0	0	0	0	0	0	0	0	2	1	0	0	0	0	0	0	0	0	0	0	0	1	0	0	0	0	0
 2014	413	0	0	2	8	36	12	14	48	27	17	0	0	8	4	2	45	11	3	9	0	0	0	0	0	0	0	0	5	0	0	0	0	1	1	0	0	0	0	2	0	11	0	1	3	0	0	1	5	2	1	0	1	0	0	0	0	2	0	0	0	0	0	0	0	1	0	0	1	2	2	0	0	0	4	5	0	0	4	0	0	0	0	0	1	0	0	0	0	0	1	0	1	0	0	0	0	0	0	0	0	0	0	0	0	0	0	0	0	0	0	0	0	1	0	0	1	0	0	0	0	0	0	0
 2015	499	17	0	0	9	10	38	30	28	17	28	48	0	21	2	4	0	13	0	0	0	0	0	0	0	0	18	0	5	4	4	10	5	0	3	0	0	0	0	0	0	2	0	5	2	0	0	0	6	2	2	0	0	2	1	0	0	4	0	0	0	0	0	0	0	0	0	4	3	2	1	0	5	0	0	0	1	0	1	0	0	0	2	2	0	0	0	0	0	0	0	0	0	0	2	0	0	0	0	1	0	0	0	1	0	0	0	0	0	0	0	1	0	0	0	0	0	0	0	0	0	0	0	0
 2016	863	88	0	27	36	6	215	104	17	22	37	108	0	11	2	11	0	0	0	0	0	0	0	0	0	0	30	0	5	6	11	0	9	0	2	0	0	2	0	0	0	4	1	7	1	0	0	1	0	4	3	3	0	2	3	0	0	0	0	0	0	0	0	0	0	0	0	4	0	2	1	0	2	4	0	0	0	0	0	0	0	0	0	0	0	0	0	0	0	0	0	1	0	0	0	0	0	0	2	1	0	0	0	0	0	0	0	0	0	0	0	0	1	0	0	0	0	0	0	1	0	0	0	0
 2017	946	48	0	15	29	7	82	58	24	16	34	38	0	14	22	9	0	0	1	0	45	0	17	0	0	0	3	0	1	9	4	0	9	0	2	22	0	0	4	1	0	1	3	0	2	0	0	1	0	3	0	3	0	1	3	0	9	0	0	0	0	0	0	0	0	0	7	0	0	0	0	5	0	1	0	0	3	0	0	0	0	0	0	0	0	0	0	0	0	1	1	0	0	0	0	0	0	0	0	0	0	0	1	0	0	0	0	0	0	1	1	0	0	0	0	0	0	0	0	0	1	1	1	1
 2018	1491	75	0	48	161	1	44	48	27	21	39	20	0	23	10	8	0	0	0	0	24	0	34	0	23	0	0	0	0	6	3	0	3	0	1	0	0	0	2	4	0	0	5	0	3	0	0	2	0	2	3	7	0	2	2	0	1	0	1	0	0	0	0	0	5	0	1	0	0	0	0	0	0	0	0	0	0	0	0	0	0	0	0	0	0	0	0	0	0	2	0	0	0	0	0	0	0	0	0	0	0	0	0	0	0	0	0	0	0	0	0	0	0	0	0	0	0	0	0	0	0	0	0	0
 2019	835	198	0	104	143	2	26	37	22	17	20	0	0	25	24	12	0	0	0	0	6	0	0	0	24	9	0	1	0	6	1	0	1	0	3	0	14	0	6	3	0	1	1	0	1	0	4	1	0	1	1	0	0	1	0	0	0	0	3	0	0	0	7	0	1	0	0	0	0	0	0	0	0	1	0	0	2	0	0	0	1	0	0	0	0	0	0	1	0	0	0	0	0	0	0	0	2	0	0	0	0	0	0	0	0	0	0	0	0	0	0	0	0	0	1	0	0	0	0	0	0	0	0	0
 2020	1143	335	332	178	268	7	43	15	9	8	20	0	72	46	29	29	11	5	0	0	7	34	0	53	5	38	0	24	0	2	3	0	0	0	2	0	4	11	2	6	0	0	1	0	1	15	8	1	0	0	1	0	0	4	3	9	0	3	1	0	0	4	1	0	1	0	0	0	0	0	1	2	0	1	0	0	0	5	0	2	4	1	0	0	0	0	1	0	0	0	0	0	0	2	0	0	0	0	0	0	2	0	1	1	2	0	0	1	1	0	0	0	0	0	0	1	0	1	0	0	0	0	0	0
 2021	764	139	467	30	20	1	18	4	3	4	0	0	134	42	21	20	11	2	0	0	5	46	0	0	0	4	0	14	0	1	3	0	1	0	1	0	0	7	5	3	0	0	6	1	0	1	2	5	0	0	2	0	0	0	0	0	0	0	0	0	0	0	0	8	1	0	0	0	0	0	0	0	0	0	0	0	0	0	0	3	0	0	0	1	0	0	2	1	0	0	0	0	0	0	0	2	0	2	0	0	0	2	0	0	0	0	0	0	0	0	0	0	0	0	0	0	0	0	0	0	0	0	0	0
 2022	146	7	20	0	0	0	1	0	0	0	0	0	5	8	2	0	5	1	0	0	0	2	0	0	0	0	0	6	0	0	0	0	0	0	0	0	4	0	1	0	0	0	1	0	0	0	0	0	0	0	0	0	0	0	0	1	0	0	0	0	0	4	0	0	0	0	0	0	0	0	0	0	0	0	0	0	0	0	0	0	0	0	0	1	0	0	0	1	0	0	0	0	0	0	0	0	0	0	0	0	0	0	0	0	0	0	0	0	0	0	0	0	0	0	0	0	0	0	0	0	0	0	0	0
