 year 	Andreas_T 	Charles_P 	Karsten_H 	Olivier_S 	Steffen_M 	Mathieu_M 	David_P 	Eric_M 	Yaroslav_H 	Gert_W 	Afif_E 	Sebastian_H 	Michael_C 	Nelson_A._de_O 	Steven_M._R 	Luis_I 	Sascha_S 	Thorsten_A 	Michael_H 	Alexandre_M 	Jorge_Sebastião_S 	K.S_B 	Andrei_Z 	Dylan 	Michael_B 	Canberk_K 	Sébastien_J 	Daniel_L 	Sebastien_J 	Amul_S 
 2002 	139 	0 	76 	0 	0 	0 	0 	0 	0 	0 	0 	0 	0 	0 	1 	0 	0 	0 	0 	0 	0 	0 	0 	0 	1 	0 	0 	0 	0 	0 
 2003 	55 	0 	20 	0 	0 	0 	0 	0 	0 	0 	0 	0 	0 	0 	0 	0 	0 	0 	0 	0 	0 	0 	0 	0 	5 	0 	0 	0 	0 	0 
 2004 	82 	0 	9 	0 	4 	1 	0 	0 	0 	0 	0 	0 	0 	0 	0 	0 	0 	0 	0 	0 	0 	0 	0 	0 	2 	0 	0 	0 	0 	0 
 2005 	171 	0 	22 	0 	35 	0 	0 	0 	0 	0 	0 	0 	0 	22 	0 	0 	0 	0 	5 	0 	0 	0 	0 	0 	6 	0 	0 	4 	0 	0 
 2006 	122 	85 	17 	0 	7 	0 	0 	0 	0 	0 	0 	0 	0 	18 	16 	0 	0 	0 	28 	0 	0 	0 	0 	0 	0 	0 	0 	0 	0 	0 
 2007 	325 	233 	34 	0 	71 	0 	147 	0 	6 	0 	0 	7 	0 	58 	1 	0 	0 	0 	21 	0 	0 	0 	0 	0 	5 	0 	0 	16 	0 	0 
 2008 	466 	335 	42 	0 	36 	86 	117 	0 	0 	8 	0 	17 	0 	55 	33 	0 	0 	0 	10 	0 	0 	0 	0 	0 	11 	0 	0 	42 	0 	0 
 2009 	411 	156 	55 	0 	68 	143 	41 	23 	1 	0 	0 	23 	0 	20 	15 	0 	0 	0 	33 	0 	0 	0 	0 	0 	22 	0 	0 	18 	0 	0 
 2010 	187 	59 	44 	0 	28 	15 	0 	18 	10 	0 	0 	22 	0 	10 	12 	0 	0 	0 	17 	0 	0 	0 	0 	0 	4 	0 	0 	0 	0 	0 
 2011 	700 	152 	129 	185 	111 	105 	8 	32 	33 	0 	0 	101 	0 	13 	14 	0 	0 	67 	10 	31 	0 	17 	11 	0 	13 	0 	0 	2 	0 	0 
 2012 	867 	184 	92 	103 	35 	61 	2 	142 	128 	29 	0 	21 	7 	0 	28 	120 	1 	28 	4 	45 	0 	62 	45 	0 	7 	0 	0 	0 	11 	15 
 2013 	441 	69 	30 	45 	19 	27 	0 	66 	38 	33 	0 	18 	0 	0 	5 	12 	13 	9 	1 	8 	9 	6 	22 	0 	4 	0 	0 	0 	22 	26 
 2014 	636 	68 	52 	58 	25 	11 	0 	26 	46 	71 	0 	3 	1 	0 	19 	31 	25 	29 	0 	18 	97 	21 	6 	26 	9 	0 	0 	0 	26 	22 
 2015 	696 	48 	46 	72 	21 	1 	0 	0 	12 	63 	136 	1 	92 	0 	32 	0 	18 	4 	1 	17 	1 	0 	16 	14 	2 	0 	68 	0 	5 	10 
 2016 	765 	18 	34 	85 	51 	0 	0 	1 	5 	73 	119 	4 	109 	0 	3 	0 	102 	2 	2 	7 	0 	0 	2 	57 	6 	93 	17 	0 	12 	3 
 2017 	4 	0 	0 	0 	0 	0 	0 	0 	1 	0 	0 	0 	0 	0 	0 	0 	0 	0 	0 	0 	0 	0 	2 	0 	0 	0 	0 	0 	0 	0 
