 year 	Andreas_T 	Charles_P 	Mathieu_M 	Shaun_J 	Michael_H 	Steffen_M 	Lucas_N 	Matthias_K 	Nelson_A._de_O 	Steven_M._R 	Olivier_S 	Luca_F 	LuisAntonio_da_Sila_D 	Karsten_H 	Joerg_J 	Julien_C 	Laszlo_K 	akavanagh_at_i 	Cyril_B 	Aaron_M._U 	Alexander_R 	Alexandre_M 	Dominique_B 	Nobuhiro_I 	Piotr_O 	Tim.com.br 	Christian_P 	Torsten_W 	peter_g 	Ivan_L 
 2006 	3 	8 	0 	0 	0 	0 	0 	0 	0 	0 	0 	0 	0 	0 	2 	0 	0 	0 	0 	0 	0 	0 	0 	0 	0 	0 	0 	0 	0 	0 
 2007 	15 	23 	0 	0 	0 	5 	2 	0 	6 	0 	0 	0 	0 	12 	9 	0 	0 	0 	0 	2 	0 	0 	0 	0 	0 	22 	0 	0 	0 	0 
 2008 	42 	66 	0 	2 	0 	20 	7 	3 	16 	7 	0 	0 	41 	3 	26 	1 	0 	0 	2 	1 	0 	0 	0 	0 	0 	0 	0 	0 	4 	0 
 2009 	92 	100 	43 	2 	1 	6 	23 	2 	35 	9 	0 	0 	6 	15 	5 	1 	0 	0 	3 	1 	0 	0 	2 	1 	0 	0 	0 	6 	5 	0 
 2010 	119 	182 	23 	126 	89 	25 	16 	24 	22 	17 	0 	6 	6 	5 	4 	12 	0 	34 	2 	1 	5 	0 	1 	2 	22 	0 	3 	5 	0 	0 
 2011 	287 	162 	53 	5 	6 	33 	28 	33 	5 	19 	39 	33 	1 	10 	0 	12 	10 	0 	9 	20 	17 	13 	15 	7 	0 	0 	6 	10 	1 	20 
 2012 	175 	63 	48 	0 	16 	8 	19 	27 	0 	17 	22 	19 	0 	2 	0 	12 	26 	0 	12 	3 	5 	12 	7 	13 	0 	0 	12 	0 	10 	0 
