 year 	Andreas_T 	Charles_P 	Mathieu_M 	Steve_M._R 	Olivier_S 	Aaron_M._U 	Steffen_M 	Dominique_B 	Philipp_B 	Nelson_A._de_O 	Thorsten_A 	Thijs_K 	Laszlo_K 	Yavor_D 	David_P 	Michael_S 	Jan_B 	Matthias_K 	Varun_H 	Gregory_C._S 	Shaun_J 	Miriam_R 
 2001 	6 	0 	0 	0 	0 	8 	0 	0 	0 	0 	0 	0 	0 	0 	0 	0 	0 	0 	0 	0 	0 	0 
 2002 	5 	0 	0 	0 	0 	4 	0 	0 	0 	0 	0 	0 	0 	0 	0 	0 	0 	0 	0 	0 	0 	0 
 2003 	7 	0 	0 	0 	0 	3 	0 	0 	0 	0 	0 	0 	0 	0 	0 	0 	0 	0 	0 	0 	0 	0 
 2004 	3 	0 	0 	1 	0 	0 	0 	0 	1 	0 	0 	0 	0 	0 	0 	0 	0 	0 	0 	0 	0 	0 
 2005 	2 	0 	0 	1 	0 	2 	0 	0 	0 	0 	0 	0 	0 	0 	0 	0 	0 	0 	0 	0 	0 	0 
 2007 	45 	27 	0 	3 	0 	6 	0 	0 	8 	3 	0 	4 	0 	0 	0 	0 	0 	0 	0 	0 	0 	0 
 2008 	30 	29 	0 	10 	0 	2 	2 	5 	1 	4 	0 	2 	0 	0 	3 	0 	0 	0 	1 	0 	0 	0 
 2009 	39 	31 	12 	6 	0 	1 	5 	10 	2 	3 	0 	0 	0 	0 	0 	0 	0 	0 	0 	0 	0 	0 
 2010 	24 	27 	18 	12 	0 	0 	7 	5 	0 	0 	0 	0 	0 	3 	0 	0 	1 	1 	0 	0 	0 	0 
 2011 	93 	32 	30 	15 	12 	6 	13 	5 	1 	0 	3 	0 	3 	0 	0 	2 	0 	1 	0 	0 	1 	1 
 2012 	46 	11 	27 	4 	33 	1 	1 	0 	0 	0 	3 	0 	0 	0 	0 	0 	1 	0 	0 	1 	0 	0 
