 year 	Andreas_T 	Charles_P 	Steffen_M 	Mathieu_M 	Steve_M._R 	Aaron_M._U 	Thorsten_A 	Laszlo_K 	Dominique_B 	Olivier_S 	Shaun_J 	Philipp_B 	Jan_B 	Nelson_A._de_O 	Alexandre_M 	David_P 	Thijs_K 	Gregory_C._S 	Ivo_M 	Carlos_B 	Yavor_D 	Morten_K 	Pjotr_P 	Luis_Rivas_V 	Tim_B 	Varun_H 	Scott_C 	Miriam_R 	Leonardo_R 	Manuel_P 	Vincent_D 	Michael_S 	Matthias_K 	Eric_T 	Robert_W 	Soeren_S 
 2001 	11 	0 	0 	0 	0 	12 	0 	0 	0 	0 	0 	0 	0 	0 	0 	0 	0 	0 	0 	0 	0 	0 	0 	0 	0 	0 	0 	0 	0 	0 	0 	0 	0 	0 	0 	0 
 2002 	10 	0 	0 	0 	2 	10 	0 	0 	0 	0 	0 	0 	0 	0 	0 	0 	0 	0 	0 	0 	0 	0 	0 	0 	0 	0 	0 	0 	0 	0 	0 	0 	0 	0 	0 	0 
 2003 	8 	0 	0 	0 	2 	11 	0 	0 	0 	0 	0 	0 	0 	0 	0 	0 	0 	0 	0 	0 	0 	0 	0 	0 	0 	0 	0 	0 	0 	0 	0 	0 	0 	0 	0 	0 
 2004 	15 	0 	0 	0 	2 	6 	0 	0 	0 	0 	0 	0 	0 	0 	0 	0 	0 	0 	0 	0 	0 	0 	0 	0 	0 	0 	0 	0 	0 	0 	0 	0 	0 	0 	0 	0 
 2005 	21 	0 	0 	0 	2 	6 	0 	0 	0 	0 	0 	0 	0 	0 	0 	0 	0 	0 	0 	0 	0 	0 	0 	0 	0 	0 	0 	0 	0 	0 	0 	0 	0 	0 	0 	0 
 2006 	19 	14 	0 	0 	5 	6 	0 	0 	0 	0 	0 	0 	0 	2 	0 	0 	2 	0 	0 	0 	0 	0 	0 	0 	0 	0 	0 	0 	0 	0 	0 	0 	0 	0 	0 	0 
 2007 	24 	35 	3 	0 	2 	4 	0 	0 	5 	0 	0 	3 	0 	8 	0 	6 	3 	0 	0 	0 	0 	0 	0 	0 	0 	0 	0 	0 	0 	0 	0 	0 	0 	0 	1 	0 
 2008 	71 	70 	91 	0 	17 	8 	0 	0 	10 	0 	0 	9 	3 	8 	0 	2 	2 	0 	0 	0 	0 	2 	0 	0 	0 	2 	0 	0 	0 	1 	0 	0 	0 	0 	0 	0 
 2009 	98 	108 	76 	34 	8 	3 	0 	0 	11 	0 	0 	13 	10 	2 	0 	0 	0 	0 	0 	0 	2 	1 	0 	0 	0 	0 	0 	0 	0 	0 	0 	0 	0 	0 	0 	1 
 2010 	118 	64 	33 	19 	16 	2 	0 	0 	1 	0 	14 	3 	3 	0 	0 	0 	0 	0 	0 	0 	2 	0 	2 	0 	0 	0 	0 	0 	0 	0 	0 	0 	1 	1 	0 	0 
 2011 	208 	92 	96 	79 	27 	10 	14 	17 	11 	30 	19 	3 	4 	0 	2 	0 	0 	3 	1 	0 	0 	0 	0 	1 	2 	0 	2 	2 	0 	0 	0 	1 	0 	0 	0 	0 
 2012 	142 	40 	2 	27 	16 	4 	33 	22 	0 	8 	2 	2 	4 	0 	6 	0 	0 	4 	5 	6 	0 	0 	0 	1 	0 	0 	0 	0 	1 	0 	1 	0 	0 	0 	0 	0 
