"number_of_developers","country_code","country","population","incidence"
177,"DE","Germany",83797985,0.211222262683285
159,"US","United States",333271411,0.0477088627323032
99,"FR","France",67971311,0.145649684467613
67,"GB","United Kingdom",67791000,0.0988331784455164
35,"CA","Canada",38939056,0.0898840485501241
33,"JP","Japan",125124989,0.0263736286921871
30,"ES","Spain",47778340,0.062789958797229
30,"AU","Australia",26014399,0.115320749866257
26,"IT","Italy",58940425,0.0441123388574141
24,"BR","Brazil",215313498,0.0111465375942199
24,"AT","Austria",9041851,0.265432376622884
22,"NL","Netherlands",17700982,0.124286889845998
22,"CH","Switzerland",8775760,0.250690538483277
21,"SE","Sweden",10486941,0.200249052607429
17,"FI","Finland",5556106,0.305969684523657
14,"IN","India",1417173173,0.000987882092797702
11,"NZ","New Zealand",5117200,0.214961306964746
11,"NO","Norway",5457127,0.201571266345826
11,"BE","Belgium",11685814,0.0941312261174104
10,"CZ","Czechia",10672118,0.0937021123641999
9,"PL","Poland",36821749,0.0244420763391766
8,"RU","Russian Federation",144236933,0.00554642963740778
8,"CN","China",1412175000,0.000566502027015065
6,"IE","Ireland",5127170,0.117023621217943
6,"GR","Greece",10426919,0.0575433644396777
6,"DK","Denmark",5903037,0.101642595159068
6,"AR","Argentina",46234830,0.0129772295042504
5,"HU","Hungary",9643048,0.0518508255895854
4,"ZA","South Africa",59893885,0.00667847811174713
4,"IL","Israel",9557500,0.0418519487313628
4,"HK","Hong Kong SAR, China",7346100,0.0544506608948966
4,"BG","Bulgaria",6465097,0.0618706880964044
3,"TH","Thailand",71697030,0.00418427374188303
3,"MX","Mexico",127504125,0.00235286505436589
3,"HR","Croatia",3855641,0.0778080739363442
2,"UY","Uruguay",3422794,0.0584317957785365
2,"TR","Turkiye",84979913,0.00235349734942656
2,"SK","Slovak Republic",5431752,0.0368205323070715
2,"SG","Singapore",5637022,0.0354797267067611
2,"PT","Portugal",10409704,0.0192128421711126
2,"LT","Lithuania",2831639,0.070630472316563
2,"KR","Korea, Rep.",51672569,0.00387052557808767
2,"GT","Guatemala",17357886,0.0115221404265473
2,"CO","Colombia",51874024,0.00385549422578052
1,"VE","Venezuela, RB",28301696,0.00353335715287169
1,"NP","Nepal",30547580,0.00327358173708032
1,"MU","Mauritius",1262523,0.0792064778225822
1,"MT","Malta",531113,0.1882838491997
1,"MG","Madagascar",29611714,0.00337704193684972
1,"LV","Latvia",1879383,0.0532089520869349
1,"LU","Luxembourg",653103,0.153115205411704
1,"LK","Sri Lanka",22181000,0.00450836301338984
1,"GE","Georgia",3712502,0.0269360124250438
1,"CL","Chile",19603733,0.00510106927083734
1,"BA","Bosnia and Herzegovina",3233526,0.0309259922449982
