 year 	Andreas_T 	Mathieu_M 	Charles_P 	Olivier_S 	Gert_W 	Steve_M._R 	Sascha_S 	Aaron_M._U 	Afif_E 	Steffen_M 	Laszlo_K 	Sebastien_J 	Michael_R._C 	Thorsten_A 	Alexandre_M 	Andrei_Z 	Kevin_M 	Rafael_L 	Dylan_A 	Dominique_B 	Nelson_A._de_O 	Gregory_C._S 	Graham_I 	Paul_N 	Iain_R._L 	Jan_B 	Dmitry_S 	Matthias_K 	Vincent_D 	Thijs_K 	Ghislain_Antony_V 	Thiago_Franco_de_M 	Philipp_B 	Yaroslav_H 	Dimitri_John_L 	Julien_L 	Scott_K 	Gianfranco_C 	Emilien_K 	David_P 	Ognyan_K 	Fabian_K 	Mattia_R 	Amul_S 	Yavor_D 	Roland_F 	Ivo_M 	Maarten_L._H 	Navid_F 	Elmar_P 	Tamás_N 	Manuel_P 	Tomas_Di_D 	Danny_E 	Julien_D 	L.C._K 	Anton_G 	Shaun_J 	Sergio_Durigan_J 	Varun_H 	tony_m 	Alexandre_G 	Eric_M 	Miriam_R 	Jorge_S 	Dirk_E 	Diane_T 	Emmanuel_B 	Tomasz_B 	Michael_S 
 2001 	6 	0 	0 	0 	0 	0 	0 	8 	0 	0 	0 	0 	0 	0 	0 	0 	0 	0 	0 	0 	0 	0 	0 	0 	0 	0 	0 	0 	0 	0 	0 	0 	0 	0 	0 	0 	0 	0 	0 	0 	0 	0 	0 	0 	0 	0 	0 	0 	0 	0 	0 	0 	0 	0 	0 	0 	0 	0 	0 	0 	0 	0 	0 	0 	0 	0 	0 	0 	0 	0 
 2002 	5 	0 	0 	0 	0 	0 	0 	4 	0 	0 	0 	0 	0 	0 	0 	0 	0 	0 	0 	0 	0 	0 	0 	0 	0 	0 	0 	0 	0 	0 	0 	0 	0 	0 	0 	0 	0 	0 	0 	0 	0 	0 	0 	0 	0 	0 	0 	0 	0 	0 	0 	0 	0 	0 	0 	0 	0 	0 	0 	0 	0 	0 	0 	0 	0 	0 	0 	0 	0 	0 
 2003 	7 	0 	0 	0 	0 	0 	0 	3 	0 	0 	0 	0 	0 	0 	0 	0 	0 	0 	0 	0 	0 	0 	0 	0 	0 	0 	0 	0 	0 	0 	0 	0 	0 	0 	0 	0 	0 	0 	0 	0 	0 	0 	0 	0 	0 	0 	0 	0 	0 	0 	0 	0 	0 	0 	0 	0 	0 	0 	0 	0 	0 	0 	0 	0 	0 	0 	0 	0 	0 	0 
 2004 	3 	0 	0 	0 	0 	1 	0 	0 	0 	0 	0 	0 	0 	0 	0 	0 	0 	0 	0 	0 	0 	0 	0 	0 	0 	0 	0 	0 	0 	0 	0 	0 	0 	0 	0 	0 	0 	0 	0 	0 	0 	0 	0 	0 	0 	0 	0 	0 	0 	0 	0 	0 	0 	0 	0 	0 	0 	0 	0 	0 	0 	0 	0 	0 	0 	1 	0 	0 	0 	0 
 2005 	2 	0 	0 	0 	0 	1 	0 	2 	0 	0 	0 	0 	0 	0 	0 	0 	0 	0 	0 	0 	0 	0 	0 	0 	0 	0 	0 	0 	0 	0 	0 	0 	0 	0 	0 	0 	0 	0 	0 	0 	0 	0 	0 	0 	0 	0 	0 	0 	0 	0 	0 	0 	0 	0 	0 	0 	0 	0 	0 	0 	0 	0 	0 	0 	0 	0 	0 	0 	0 	0 
 2007 	45 	0 	0 	0 	0 	3 	0 	6 	0 	0 	0 	0 	0 	0 	0 	0 	0 	6 	0 	0 	3 	0 	0 	0 	0 	0 	0 	0 	0 	4 	0 	0 	0 	0 	0 	0 	0 	0 	0 	0 	0 	0 	0 	0 	0 	0 	0 	0 	0 	0 	0 	0 	0 	0 	0 	0 	0 	0 	0 	0 	0 	0 	0 	0 	0 	0 	0 	0 	0 	0 
 2008 	30 	0 	11 	0 	0 	11 	0 	2 	0 	2 	0 	0 	0 	0 	0 	0 	0 	1 	0 	0 	3 	0 	0 	0 	0 	0 	0 	0 	0 	2 	0 	0 	0 	0 	0 	0 	0 	0 	0 	3 	0 	0 	0 	0 	0 	0 	0 	0 	0 	0 	0 	0 	0 	0 	0 	0 	0 	0 	0 	1 	0 	0 	0 	0 	0 	0 	0 	0 	0 	0 
 2009 	37 	12 	29 	0 	0 	5 	0 	1 	0 	5 	0 	0 	0 	0 	0 	0 	0 	2 	0 	0 	3 	0 	0 	0 	0 	0 	0 	0 	0 	0 	0 	0 	2 	0 	0 	0 	0 	0 	0 	0 	0 	0 	0 	0 	0 	0 	0 	0 	0 	0 	0 	0 	0 	0 	0 	0 	0 	0 	0 	0 	0 	0 	0 	0 	0 	0 	0 	0 	0 	0 
 2010 	19 	16 	27 	0 	0 	9 	0 	0 	0 	7 	0 	0 	0 	0 	0 	0 	0 	0 	0 	0 	0 	0 	0 	0 	0 	1 	0 	1 	0 	0 	0 	0 	0 	0 	0 	0 	0 	0 	0 	0 	0 	0 	0 	0 	3 	0 	0 	0 	0 	0 	0 	0 	0 	0 	0 	0 	0 	0 	0 	0 	0 	0 	0 	0 	0 	0 	0 	0 	0 	0 
 2011 	76 	19 	29 	12 	0 	18 	0 	6 	0 	16 	3 	0 	0 	3 	0 	0 	0 	0 	0 	3 	0 	0 	0 	0 	0 	0 	0 	0 	0 	0 	0 	0 	1 	0 	0 	0 	0 	0 	0 	0 	0 	0 	0 	0 	0 	0 	0 	0 	0 	0 	0 	1 	0 	0 	0 	0 	0 	1 	0 	0 	0 	0 	0 	1 	0 	0 	0 	0 	0 	1 
 2012 	121 	57 	23 	56 	0 	9 	0 	3 	0 	2 	6 	0 	0 	4 	2 	3 	0 	0 	0 	3 	0 	3 	0 	0 	0 	2 	0 	2 	0 	0 	0 	0 	0 	0 	0 	0 	1 	0 	0 	0 	0 	0 	0 	0 	0 	0 	0 	1 	0 	0 	0 	1 	0 	0 	0 	0 	0 	0 	0 	0 	0 	0 	0 	0 	0 	0 	0 	0 	0 	0 
 2013 	105 	36 	15 	25 	6 	5 	0 	6 	0 	1 	15 	5 	0 	12 	5 	3 	0 	1 	0 	2 	0 	0 	0 	0 	0 	2 	3 	0 	0 	0 	0 	3 	2 	0 	4 	0 	0 	0 	2 	0 	1 	0 	0 	0 	0 	0 	2 	1 	0 	0 	0 	0 	0 	0 	0 	0 	1 	0 	0 	0 	0 	0 	0 	0 	0 	0 	1 	0 	0 	0 
 2014 	183 	56 	15 	16 	5 	9 	5 	1 	0 	2 	7 	5 	0 	2 	2 	4 	0 	0 	0 	0 	0 	3 	0 	0 	6 	1 	1 	0 	2 	0 	0 	2 	0 	1 	0 	0 	0 	2 	2 	0 	1 	0 	0 	1 	0 	0 	1 	0 	0 	2 	0 	0 	2 	0 	0 	1 	0 	0 	0 	0 	0 	1 	1 	0 	1 	0 	0 	0 	0 	0 
 2015 	121 	5 	5 	13 	7 	8 	1 	2 	7 	0 	0 	5 	0 	0 	6 	2 	2 	1 	0 	1 	0 	3 	0 	5 	0 	0 	3 	4 	0 	0 	0 	0 	0 	1 	0 	0 	2 	0 	0 	0 	0 	1 	0 	1 	0 	2 	0 	0 	2 	0 	2 	0 	0 	0 	0 	0 	0 	0 	0 	0 	0 	0 	0 	0 	0 	0 	0 	0 	1 	0 
 2016 	275 	2 	6 	5 	65 	1 	42 	5 	27 	1 	0 	10 	21 	0 	3 	6 	12 	1 	7 	1 	0 	0 	0 	0 	1 	1 	0 	0 	4 	0 	2 	0 	0 	3 	0 	3 	1 	2 	0 	0 	1 	1 	2 	0 	0 	1 	0 	0 	0 	0 	0 	0 	0 	2 	0 	0 	0 	0 	1 	0 	1 	0 	0 	0 	0 	0 	0 	1 	0 	0 
 2017 	168 	0 	3 	5 	23 	0 	21 	4 	8 	4 	0 	6 	8 	0 	1 	0 	4 	2 	5 	0 	0 	0 	8 	3 	0 	0 	0 	0 	0 	0 	3 	0 	0 	0 	0 	1 	0 	0 	0 	0 	0 	1 	1 	1 	0 	0 	0 	0 	0 	0 	0 	0 	0 	0 	2 	0 	0 	0 	0 	0 	0 	0 	0 	0 	0 	0 	0 	0 	0 	0 
