 year 	Andreas_T 	Mathieu_M 	Charles_P 	Olivier_S 	Steve_M._R 	Aaron_M._U 	Steffen_M 	Laszlo_K 	Dominique_B 	Thorsten_A 	Gert_W 	Sebastien_J 	Alexandre_M 	Nelson_A._de_O 	Thijs_K 	Iain_R._L 	Gregory_C._S 	Jan_B 	Philipp_B 	Thiago_Franco_de_M 	Sascha_S 	Emmanuel_P 	Dmitry_S 	Dmitrijs_L 	Emilien_K 	Ivo_M 	Yavor_D 	Ognyan_K 	Matthias_K 	Gianfranco_C 	David_P 	Vincent_D 	Maarten_L._H 	Yaroslav_H 	Elmar_P 	Michael_S 	Tomas_Di_D 	Leonardo_R 	Manuel_P 	Andreas_H 	Dirk_E 	Amul_S 	Diane_T 	Jorge_S 	Miriam_R 	Alexandre_G 	L.C._K 	Eric_M 	Shaun_J 	Rafael_L 	Tamás_N 	Varun_H 
 2001 	6 	0 	0 	0 	0 	8 	0 	0 	0 	0 	0 	0 	0 	0 	0 	0 	0 	0 	0 	0 	0 	0 	0 	0 	0 	0 	0 	0 	0 	0 	0 	0 	0 	0 	0 	0 	0 	0 	0 	0 	0 	0 	0 	0 	0 	0 	0 	0 	0 	0 	0 	0 
 2002 	5 	0 	0 	0 	0 	4 	0 	0 	0 	0 	0 	0 	0 	0 	0 	0 	0 	0 	0 	0 	0 	0 	0 	0 	0 	0 	0 	0 	0 	0 	0 	0 	0 	0 	0 	0 	0 	0 	0 	0 	0 	0 	0 	0 	0 	0 	0 	0 	0 	0 	0 	0 
 2003 	7 	0 	0 	0 	0 	3 	0 	0 	0 	0 	0 	0 	0 	0 	0 	0 	0 	0 	0 	0 	0 	0 	0 	0 	0 	0 	0 	0 	0 	0 	0 	0 	0 	0 	0 	0 	0 	0 	0 	0 	0 	0 	0 	0 	0 	0 	0 	0 	0 	0 	0 	0 
 2004 	3 	0 	0 	0 	1 	0 	0 	0 	0 	0 	0 	0 	0 	0 	0 	0 	0 	0 	0 	0 	0 	0 	0 	0 	0 	0 	0 	0 	0 	0 	0 	0 	0 	0 	0 	0 	0 	0 	0 	0 	1 	0 	0 	0 	0 	0 	0 	0 	0 	0 	0 	0 
 2005 	2 	0 	0 	0 	1 	2 	0 	0 	0 	0 	0 	0 	0 	0 	0 	0 	0 	0 	0 	0 	0 	0 	0 	0 	0 	0 	0 	0 	0 	0 	0 	0 	0 	0 	0 	0 	0 	0 	0 	0 	0 	0 	0 	0 	0 	0 	0 	0 	0 	0 	0 	0 
 2007 	45 	0 	27 	0 	3 	6 	0 	0 	0 	0 	0 	0 	0 	3 	4 	0 	0 	0 	0 	0 	0 	0 	0 	0 	0 	0 	0 	0 	0 	0 	0 	0 	0 	0 	0 	0 	0 	0 	0 	0 	0 	0 	0 	0 	0 	0 	0 	0 	0 	0 	0 	0 
 2008 	30 	0 	29 	0 	11 	2 	2 	0 	5 	0 	0 	0 	0 	4 	2 	0 	0 	0 	0 	0 	0 	0 	0 	0 	0 	0 	0 	0 	0 	0 	3 	0 	0 	0 	0 	0 	0 	0 	0 	0 	0 	0 	0 	0 	0 	0 	0 	0 	0 	0 	0 	1 
 2009 	37 	12 	31 	0 	6 	1 	5 	0 	10 	0 	0 	0 	0 	3 	0 	0 	0 	0 	2 	0 	0 	0 	0 	0 	0 	0 	0 	0 	0 	0 	0 	0 	0 	0 	0 	0 	0 	0 	0 	0 	0 	0 	0 	0 	0 	0 	0 	0 	0 	0 	0 	0 
 2010 	19 	18 	27 	0 	11 	0 	7 	0 	5 	0 	0 	0 	0 	0 	0 	0 	0 	1 	0 	0 	0 	0 	0 	0 	0 	0 	3 	0 	1 	0 	0 	0 	0 	0 	0 	0 	0 	0 	0 	0 	0 	0 	0 	0 	0 	0 	0 	0 	0 	0 	0 	0 
 2011 	77 	25 	29 	12 	18 	6 	16 	3 	3 	3 	0 	0 	0 	0 	0 	0 	0 	0 	1 	0 	0 	0 	0 	0 	0 	0 	0 	0 	0 	0 	0 	0 	0 	0 	0 	2 	0 	0 	1 	0 	0 	0 	0 	0 	1 	0 	0 	0 	1 	0 	0 	0 
 2012 	121 	61 	23 	56 	13 	3 	2 	6 	3 	4 	0 	0 	2 	0 	0 	0 	3 	2 	0 	0 	0 	0 	0 	0 	0 	0 	0 	0 	2 	0 	0 	0 	1 	0 	0 	0 	0 	0 	1 	1 	0 	0 	0 	0 	0 	0 	0 	0 	0 	0 	0 	0 
 2013 	108 	48 	17 	25 	5 	6 	1 	16 	2 	12 	6 	5 	5 	0 	0 	0 	0 	2 	2 	3 	0 	4 	3 	4 	2 	2 	0 	2 	0 	0 	0 	0 	1 	0 	0 	0 	0 	2 	0 	1 	0 	0 	1 	0 	0 	0 	0 	0 	0 	1 	0 	0 
 2014 	188 	62 	16 	18 	9 	1 	2 	7 	1 	2 	7 	6 	3 	0 	0 	6 	3 	1 	0 	2 	5 	1 	1 	0 	2 	1 	0 	1 	0 	3 	0 	2 	0 	1 	2 	0 	2 	0 	0 	0 	0 	1 	0 	1 	0 	1 	1 	1 	0 	0 	1 	0 
 2015 	1 	0 	0 	1 	0 	0 	0 	0 	0 	0 	0 	0 	0 	0 	0 	0 	0 	0 	0 	0 	0 	0 	0 	0 	0 	0 	0 	0 	0 	0 	0 	0 	0 	1 	0 	0 	0 	0 	0 	0 	0 	0 	0 	0 	0 	0 	0 	0 	0 	0 	0 	0 
