 year 	Andreas_T 	Charles_P 	Steffen_M 	Mathieu_M 	Olivier_S 	Steve_M._R 	Thorsten_A 	Laszlo_K 	Aaron_M._U 	Dominique_B 	Jan_B 	Alexandre_M 	Shaun_J 	Gert_W 	Philipp_B 	Sascha_S 	Sebastien_J 	Nelson_A._de_O 	Gregory_C._S 	Iain_R._L 	Eric_M 	Ivo_M 	Dmitry_S 	Maarten_L._H 	Dirk_E 	Dylan_A 	David_P 	Ognyan_K 	Thiago_Franco_de_M 	Dmitrijs_L 	Rafael_L 	Emmanuel_P 	Thijs_K 	Emilien_K 	L.C._K 	Carlos_B 	David_P 	Vincent_D 	Tobias_H 	Jorge_S 	Alexandre_G 	Tomas_Di_D 	Yavor_D 	Manuel_P 	Benjamin_E 	Sebastian_H 	Guy_Y 	Diane_T 	Morten_K 	Andreas_H 	Varun_H 	Pjotr_P 	Gianfranco_C 	Amul_S 	Simon_K 	Leonardo_R 	Luis_Rivas_V 	Sébastien_B 	Scott_C 	Tim_B 	Roland_F 	Yaroslav_H 	Miriam_R 	Tamás_N 	Ariane_B 	Julia_E 	Christoph_G 	Cedric_S 	Eric_T 	Pablo_L 	Emmanuel_B 	Robert_W 	Matthias_K 	Soeren_S 	Erik_S 	Eva_R 	Sukhbir_S 	Michael_S 	Stephen_S 	Tony_T 	Elmar_P 
 2001 	11 	0 	0 	0 	0 	0 	0 	0 	12 	0 	0 	0 	0 	0 	0 	0 	0 	0 	0 	0 	0 	0 	0 	0 	0 	0 	0 	0 	0 	0 	0 	0 	0 	0 	0 	0 	0 	0 	0 	0 	0 	0 	0 	0 	0 	0 	0 	0 	0 	0 	0 	0 	0 	0 	0 	0 	0 	0 	0 	0 	0 	0 	0 	0 	0 	0 	0 	0 	0 	0 	0 	0 	0 	0 	0 	0 	0 	0 	0 	0 	0 
 2002 	10 	0 	0 	0 	0 	2 	0 	0 	10 	0 	0 	0 	0 	0 	0 	0 	0 	0 	0 	0 	0 	0 	0 	0 	0 	0 	0 	0 	0 	0 	0 	0 	0 	0 	0 	0 	0 	0 	0 	0 	0 	0 	0 	0 	0 	0 	0 	0 	0 	0 	0 	0 	0 	0 	0 	0 	0 	0 	0 	0 	0 	0 	0 	0 	0 	0 	0 	0 	0 	0 	0 	0 	0 	0 	0 	0 	0 	0 	0 	0 	0 
 2003 	8 	0 	0 	0 	0 	2 	0 	0 	11 	0 	0 	0 	0 	0 	0 	0 	0 	0 	0 	0 	0 	0 	0 	0 	0 	0 	0 	0 	0 	0 	0 	0 	0 	0 	0 	0 	0 	0 	0 	0 	0 	0 	0 	0 	0 	0 	0 	0 	0 	0 	0 	0 	0 	0 	0 	0 	0 	0 	0 	0 	0 	0 	0 	0 	0 	0 	0 	0 	0 	0 	0 	0 	0 	0 	0 	0 	0 	0 	0 	0 	0 
 2004 	15 	0 	0 	0 	0 	2 	0 	0 	6 	0 	0 	0 	0 	0 	0 	0 	0 	0 	0 	0 	0 	0 	0 	0 	0 	0 	0 	0 	0 	0 	0 	0 	0 	0 	0 	0 	0 	0 	0 	0 	0 	0 	0 	0 	0 	0 	0 	0 	0 	0 	0 	0 	0 	0 	0 	0 	0 	0 	0 	0 	0 	0 	0 	0 	0 	0 	0 	0 	0 	0 	0 	0 	0 	0 	0 	0 	0 	0 	0 	0 	0 
 2005 	21 	0 	0 	0 	0 	2 	0 	0 	6 	0 	0 	0 	0 	0 	0 	0 	0 	0 	0 	0 	0 	0 	0 	0 	0 	0 	0 	0 	0 	0 	0 	0 	0 	0 	0 	0 	0 	0 	0 	0 	0 	0 	0 	0 	0 	0 	0 	0 	0 	0 	0 	0 	0 	0 	0 	0 	0 	0 	0 	0 	0 	0 	0 	0 	0 	0 	0 	0 	0 	0 	0 	0 	0 	0 	0 	0 	0 	0 	0 	0 	0 
 2006 	19 	14 	0 	0 	0 	5 	0 	0 	6 	0 	0 	0 	0 	0 	0 	0 	0 	2 	0 	0 	0 	0 	0 	0 	5 	0 	0 	0 	0 	0 	0 	0 	2 	0 	0 	0 	0 	0 	0 	0 	0 	0 	0 	0 	0 	0 	0 	0 	0 	0 	0 	0 	0 	0 	0 	0 	0 	0 	0 	0 	0 	0 	0 	0 	0 	0 	0 	0 	0 	0 	0 	0 	0 	0 	0 	0 	0 	0 	0 	0 	0 
 2007 	24 	35 	3 	0 	0 	2 	0 	0 	4 	5 	0 	0 	0 	0 	0 	0 	0 	8 	0 	0 	0 	0 	0 	0 	1 	0 	6 	0 	0 	0 	0 	0 	3 	0 	0 	0 	0 	0 	0 	0 	0 	0 	0 	0 	0 	0 	0 	0 	0 	0 	0 	0 	0 	0 	0 	0 	0 	0 	0 	0 	0 	0 	0 	0 	0 	0 	0 	0 	0 	0 	0 	1 	0 	0 	0 	0 	0 	0 	0 	0 	0 
 2008 	71 	70 	91 	0 	0 	17 	0 	0 	8 	10 	3 	0 	0 	0 	0 	0 	0 	8 	0 	0 	0 	0 	0 	0 	0 	0 	2 	0 	0 	0 	0 	0 	2 	0 	0 	0 	0 	0 	0 	0 	0 	0 	0 	1 	0 	0 	0 	0 	2 	0 	2 	0 	0 	0 	0 	0 	0 	0 	0 	0 	0 	0 	0 	0 	0 	0 	0 	0 	0 	0 	0 	0 	0 	0 	0 	0 	0 	0 	0 	0 	0 
 2009 	98 	108 	76 	34 	0 	8 	0 	0 	3 	11 	10 	0 	0 	0 	9 	0 	0 	2 	0 	0 	0 	0 	0 	0 	0 	0 	0 	0 	0 	0 	0 	0 	0 	0 	0 	0 	0 	0 	0 	0 	0 	0 	2 	0 	0 	0 	0 	0 	1 	0 	0 	0 	0 	0 	0 	0 	0 	0 	0 	0 	0 	0 	0 	0 	0 	0 	0 	0 	0 	0 	0 	0 	0 	1 	0 	0 	0 	0 	0 	0 	0 
 2010 	118 	64 	33 	19 	0 	16 	0 	0 	2 	1 	3 	0 	14 	0 	3 	0 	0 	0 	0 	0 	0 	0 	0 	0 	0 	0 	0 	0 	0 	0 	0 	0 	0 	0 	0 	0 	0 	0 	0 	0 	0 	0 	2 	0 	0 	0 	0 	0 	0 	0 	0 	2 	0 	0 	0 	0 	0 	0 	0 	0 	0 	0 	0 	0 	0 	0 	0 	0 	1 	0 	0 	0 	1 	0 	0 	0 	0 	0 	0 	0 	0 
 2011 	208 	92 	103 	79 	30 	27 	14 	17 	10 	11 	4 	2 	19 	0 	3 	0 	0 	0 	3 	0 	0 	1 	0 	0 	0 	0 	0 	0 	0 	0 	0 	0 	0 	0 	0 	0 	0 	0 	0 	0 	0 	0 	0 	2 	0 	0 	0 	0 	0 	1 	0 	0 	0 	0 	0 	0 	1 	0 	2 	2 	0 	0 	2 	0 	0 	0 	0 	0 	0 	0 	0 	0 	0 	0 	0 	0 	0 	1 	0 	0 	0 
 2012 	201 	49 	6 	73 	70 	19 	39 	49 	6 	3 	5 	10 	3 	2 	3 	6 	3 	0 	5 	0 	2 	6 	0 	3 	0 	0 	0 	0 	1 	0 	1 	1 	0 	0 	0 	6 	0 	1 	0 	0 	0 	0 	0 	1 	0 	3 	1 	0 	0 	1 	0 	0 	0 	0 	0 	1 	1 	1 	0 	0 	0 	0 	0 	0 	1 	1 	1 	1 	0 	0 	0 	0 	0 	0 	0 	1 	0 	0 	0 	0 	0 
 2013 	252 	54 	3 	69 	55 	18 	52 	23 	8 	3 	8 	10 	0 	15 	8 	6 	8 	0 	2 	0 	3 	3 	4 	6 	3 	0 	0 	7 	3 	8 	2 	3 	0 	3 	1 	0 	2 	2 	3 	0 	1 	3 	0 	0 	1 	0 	2 	2 	0 	0 	0 	0 	0 	0 	1 	1 	0 	0 	0 	0 	0 	0 	0 	0 	0 	0 	0 	0 	0 	0 	0 	0 	0 	0 	1 	0 	1 	0 	0 	1 	0 
 2014 	425 	36 	27 	46 	52 	11 	4 	9 	2 	0 	7 	17 	0 	14 	1 	12 	9 	0 	1 	11 	6 	1 	5 	0 	0 	8 	0 	1 	4 	0 	4 	3 	0 	4 	5 	0 	3 	1 	1 	4 	3 	1 	0 	0 	2 	0 	0 	1 	0 	0 	0 	0 	2 	2 	1 	0 	0 	1 	0 	0 	2 	2 	0 	1 	0 	0 	0 	0 	0 	1 	1 	0 	0 	0 	0 	0 	0 	0 	1 	0 	1 
 2015 	1 	0 	0 	0 	0 	0 	0 	0 	0 	0 	0 	0 	0 	0 	0 	0 	0 	0 	0 	0 	0 	0 	0 	0 	0 	0 	0 	0 	0 	0 	0 	0 	0 	0 	0 	0 	0 	0 	0 	0 	0 	0 	0 	0 	0 	0 	0 	0 	0 	0 	0 	0 	0 	0 	0 	0 	0 	0 	0 	0 	0 	0 	0 	0 	0 	0 	0 	0 	0 	0 	0 	0 	0 	0 	0 	0 	0 	0 	0 	0 	0 
