 year	Dirk_E	Andreas_T	Chris_L	Christophe_P	Charles_P	Denis_B	Sébastien_V	Graham_I	Daniel_P	Dylan_A	Steffen_M	Philip_R	Luca_F	Aron_X	Julian_G	Joost_van_B	Pablo_O	gregor_h	Mattia_R	Chris_L	Don_A
 2001	6	0	0	0	0	0	0	0	0	0	0	0	0	0	0	0	0	0	0	0	0
 2002	17	0	0	0	0	0	0	0	0	0	0	0	0	0	0	0	0	0	0	0	0
 2003	20	0	4	0	0	0	0	0	0	0	0	0	0	0	0	0	0	0	0	0	0
 2004	44	0	2	0	0	0	0	0	0	0	0	0	0	0	0	0	0	0	0	0	0
 2005	12	0	1	0	0	0	0	0	0	0	0	0	0	0	0	0	0	0	0	0	0
 2007	98	0	11	0	0	0	0	0	0	0	0	0	0	0	0	0	0	0	0	0	0
 2008	40	0	3	6	0	0	0	0	0	0	0	0	0	0	0	0	0	0	0	1	0
 2009	49	4	0	5	4	0	0	0	0	0	2	0	0	0	0	0	0	0	0	0	0
 2010	29	0	0	12	3	0	0	0	0	0	0	0	0	0	1	0	0	0	0	0	0
 2011	31	11	4	3	8	0	0	0	0	0	0	0	0	0	0	0	0	0	0	0	0
 2012	25	1	1	0	1	5	1	0	0	0	0	0	2	3	1	0	0	2	0	0	0
 2013	16	5	4	0	2	2	0	0	0	0	0	0	1	0	0	0	0	0	0	0	1
 2014	20	28	0	0	0	1	0	0	0	0	2	0	0	0	0	0	0	0	0	0	0
 2015	14	5	3	0	1	5	0	0	0	0	0	0	0	0	0	0	0	0	0	0	0
 2016	65	23	3	0	2	0	0	0	6	1	0	0	0	0	0	2	2	0	1	0	0
 2017	13	25	0	0	1	3	5	4	0	0	0	3	0	0	0	0	0	0	0	0	0
 2018	13	38	0	0	1	2	0	2	0	4	0	0	0	0	0	0	0	0	0	0	0
